sim_iverilog/cpu_sim.vcd
$date
	Thu Nov 13 14:25:41 2025
$end
$version
	Icarus Verilog
$end
$timescale
	1ps
$end
$scope module testbench $end
$var wire 16 ! seven_seg_data [15:0] $end
$var wire 4 " seven_seg_an [3:0] $end
$var wire 16 # leds [15:0] $end
$var wire 32 $ cpu_writedata [31:0] $end
$var wire 32 % cpu_readdata [31:0] $end
$var wire 1 & cpu_memwrite $end
$var wire 1 ' cpu_memread $end
$var wire 32 ( cpu_addr [31:0] $end
$var reg 5 ) buttons [4:0] $end
$var reg 1 * clk $end
$var reg 1 + reset $end
$var reg 16 , switches [15:0] $end
$scope module cpu $end
$var wire 1 * clk $end
$var wire 1 + reset $end
$var wire 1 - zero $end
$var wire 32 . writedata [31:0] $end
$var wire 1 / regwrite $end
$var wire 2 0 regdst [1:0] $end
$var wire 1 1 pcwrite $end
$var wire 2 2 pcsource [1:0] $end
$var wire 1 3 pcen $end
$var wire 1 & memwrite $end
$var wire 1 4 memtoreg $end
$var wire 1 ' memread $end
$var wire 32 5 memdata [31:0] $end
$var wire 1 6 irwrite $end
$var wire 1 7 iord $end
$var wire 32 8 instr [31:0] $end
$var wire 2 9 alusrcb [1:0] $end
$var wire 1 : alusrca $end
$var wire 2 ; aluop [1:0] $end
$var wire 3 < alucont [2:0] $end
$var wire 32 = adr [31:0] $end
$scope module acont $end
$var wire 6 > funct [5:0] $end
$var wire 2 ? aluop [1:0] $end
$var parameter 3 @ ALU_ADD $end
$var parameter 3 A ALU_AND $end
$var parameter 3 B ALU_OR $end
$var parameter 3 C ALU_SLT $end
$var parameter 3 D ALU_SUB $end
$var parameter 6 E F_ADD $end
$var parameter 6 F F_AND $end
$var parameter 6 G F_JR $end
$var parameter 6 H F_OR $end
$var parameter 6 I F_SLT $end
$var parameter 6 J F_SUB $end
$var reg 3 K alucont [2:0] $end
$upscope $end
$scope module c $end
$var wire 1 * clk $end
$var wire 6 L funct [5:0] $end
$var wire 6 M op [5:0] $end
$var wire 1 3 pcen $end
$var wire 1 + reset $end
$var wire 1 - zero $end
$var wire 1 N pcwritecond $end
$var wire 1 O cond $end
$var parameter 6 P ADDI $end
$var parameter 6 Q BEQ $end
$var parameter 6 R BNE $end
$var parameter 4 S BRANCH_COMP $end
$var parameter 4 T DECODE $end
$var parameter 4 U FETCH $end
$var parameter 6 V F_JR $end
$var parameter 4 W I_EXECUTE $end
$var parameter 4 X I_WRITEBACK $end
$var parameter 6 Y J $end
$var parameter 6 Z JAL $end
$var parameter 4 [ JAL_WRITEBACK $end
$var parameter 4 \ JUMP_EXECUTE $end
$var parameter 6 ] LUI $end
$var parameter 6 ^ LW $end
$var parameter 4 _ LW_READ $end
$var parameter 4 ` LW_WRITEBACK $end
$var parameter 4 a MEM_ADDR_COMP $end
$var parameter 6 b ORI $end
$var parameter 6 c RTYPE $end
$var parameter 4 d R_EXECUTE $end
$var parameter 4 e R_WRITEBACK $end
$var parameter 6 f SW $end
$var parameter 4 g SW_WRITE $end
$var reg 2 h aluop [1:0] $end
$var reg 1 : alusrca $end
$var reg 2 i alusrcb [1:0] $end
$var reg 1 7 iord $end
$var reg 1 6 irwrite $end
$var reg 1 ' memread $end
$var reg 2 j memtoreg [1:0] $end
$var reg 1 & memwrite $end
$var reg 4 k nextstate [3:0] $end
$var reg 2 l pcsource [1:0] $end
$var reg 1 1 pcwrite $end
$var reg 2 m regdst [1:0] $end
$var reg 1 / regwrite $end
$var reg 4 n state [3:0] $end
$upscope $end
$scope module dp $end
$var wire 3 o alucont [2:0] $end
$var wire 1 : alusrca $end
$var wire 2 p alusrcb [1:0] $end
$var wire 1 * clk $end
$var wire 1 7 iord $end
$var wire 1 6 irwrite $end
$var wire 1 4 memtoreg $end
$var wire 1 3 pcen $end
$var wire 2 q pcsource [1:0] $end
$var wire 2 r regdst [1:0] $end
$var wire 1 / regwrite $end
$var wire 1 + reset $end
$var wire 32 s zero_ext_imm [31:0] $end
$var wire 1 - zero $end
$var wire 32 t writedata [31:0] $end
$var wire 32 u wd [31:0] $end
$var wire 5 v wa [4:0] $end
$var wire 32 w src2_option3 [31:0] $end
$var wire 32 x src2 [31:0] $end
$var wire 32 y src1 [31:0] $end
$var wire 32 z sign_imm [31:0] $end
$var wire 32 { rd2 [31:0] $end
$var wire 32 | rd1 [31:0] $end
$var wire 32 } pc [31:0] $end
$var wire 32 ~ nextpc [31:0] $end
$var wire 32 !" memdata [31:0] $end
$var wire 32 "" lui_imm [31:0] $end
$var wire 32 #" instr [31:0] $end
$var wire 32 $" aluresult [31:0] $end
$var wire 32 %" aluout_pc [31:0] $end
$var wire 32 &" aluout [31:0] $end
$var wire 32 '" adr [31:0] $end
$var wire 32 (" a [31:0] $end
$var parameter 32 )" REGBITS $end
$var parameter 32 *" WIDTH $end
$var reg 16 +" imm_latch [15:0] $end
$var reg 5 ," rd_latch [4:0] $end
$var reg 5 -" rs_latch [4:0] $end
$var reg 5 ." rt_latch [4:0] $end
$scope module adrmux $end
$var wire 1 7 s $end
$var wire 32 /" y [31:0] $end
$var wire 32 0" d1 [31:0] $end
$var wire 32 1" d0 [31:0] $end
$var parameter 32 2" WIDTH $end
$upscope $end
$scope module aluoutreg $end
$var wire 1 * clk $end
$var wire 32 3" d [31:0] $end
$var parameter 32 4" WIDTH $end
$var reg 32 5" q [31:0] $end
$upscope $end
$scope module areg $end
$var wire 1 * clk $end
$var wire 32 6" d [31:0] $end
$var parameter 32 7" WIDTH $end
$var reg 32 8" q [31:0] $end
$upscope $end
$scope module breg $end
$var wire 1 * clk $end
$var wire 32 9" d [31:0] $end
$var parameter 32 :" WIDTH $end
$var reg 32 ;" q [31:0] $end
$upscope $end
$scope module ir_reg $end
$var wire 1 * clk $end
$var wire 1 6 en $end
$var wire 32 <" d [31:0] $end
$var parameter 32 =" WIDTH $end
$var reg 32 >" q [31:0] $end
$upscope $end
$scope module main_alu $end
$var wire 3 ?" alucont [2:0] $end
$var wire 32 @" sum [31:0] $end
$var wire 32 A" slt [31:0] $end
$var wire 32 B" b2 [31:0] $end
$var wire 32 C" b [31:0] $end
$var wire 32 D" a [31:0] $end
$var parameter 32 E" WIDTH $end
$var reg 32 F" result [31:0] $end
$upscope $end
$scope module pcadd $end
$var wire 3 G" alucont [2:0] $end
$var wire 32 H" b [31:0] $end
$var wire 32 I" sum [31:0] $end
$var wire 32 J" slt [31:0] $end
$var wire 32 K" b2 [31:0] $end
$var wire 32 L" a [31:0] $end
$var parameter 32 M" WIDTH $end
$var reg 32 N" result [31:0] $end
$upscope $end
$scope module pcmux $end
$var wire 32 O" d0 [31:0] $end
$var wire 32 P" d1 [31:0] $end
$var wire 32 Q" d2 [31:0] $end
$var wire 2 R" s [1:0] $end
$var wire 32 S" d3 [31:0] $end
$var parameter 32 T" WIDTH $end
$var reg 32 U" y [31:0] $end
$upscope $end
$scope module pcreg $end
$var wire 1 * clk $end
$var wire 32 V" d [31:0] $end
$var wire 1 3 en $end
$var wire 1 + reset $end
$var parameter 32 W" WIDTH $end
$var reg 32 X" q [31:0] $end
$upscope $end
$scope module rf $end
$var wire 1 * clk $end
$var wire 5 Y" ra1 [4:0] $end
$var wire 5 Z" ra2 [4:0] $end
$var wire 1 / regwrite $end
$var wire 32 [" wd [31:0] $end
$var wire 5 \" wa [4:0] $end
$var wire 32 ]" rd2 [31:0] $end
$var wire 32 ^" rd1 [31:0] $end
$var parameter 37 _" N $end
$var parameter 32 `" REGBITS $end
$var parameter 32 a" WIDTH $end
$var integer 32 b" i [31:0] $end
$upscope $end
$scope module src1mux $end
$var wire 32 c" d0 [31:0] $end
$var wire 32 d" d1 [31:0] $end
$var wire 1 : s $end
$var wire 32 e" y [31:0] $end
$var parameter 32 f" WIDTH $end
$upscope $end
$scope module src2mux $end
$var wire 32 g" d0 [31:0] $end
$var wire 32 h" d1 [31:0] $end
$var wire 32 i" d2 [31:0] $end
$var wire 32 j" d3 [31:0] $end
$var wire 2 k" s [1:0] $end
$var parameter 32 l" WIDTH $end
$var reg 32 m" y [31:0] $end
$upscope $end
$scope module wamux $end
$var wire 5 n" d0 [4:0] $end
$var wire 5 o" d1 [4:0] $end
$var wire 5 p" d2 [4:0] $end
$var wire 2 q" s [1:0] $end
$var parameter 32 r" WIDTH $end
$var reg 5 s" y [4:0] $end
$upscope $end
$scope module wdmux $end
$var wire 32 t" d0 [31:0] $end
$var wire 32 u" d2 [31:0] $end
$var wire 2 v" s [1:0] $end
$var wire 32 w" d1 [31:0] $end
$var parameter 32 x" WIDTH $end
$var reg 32 y" y [31:0] $end
$upscope $end
$scope module zd $end
$var wire 32 z" in [31:0] $end
$var wire 1 - zero $end
$var parameter 32 {" WIDTH $end
$upscope $end
$upscope $end
$upscope $end
$scope module mem $end
$var wire 32 |" addr [31:0] $end
$var wire 5 }" buttons_in [4:0] $end
$var wire 1 * clk $end
$var wire 16 ~" leds_out [15:0] $end
$var wire 1 ' memread $end
$var wire 1 & memwrite $end
$var wire 4 !# seven_seg_an [3:0] $end
$var wire 16 "# seven_seg_data [15:0] $end
$var wire 16 ## switches_in [15:0] $end
$var wire 32 $# writedata [31:0] $end
$var wire 14 %# ram_addr [13:0] $end
$var parameter 32 &# ADDR_7SEG_AN $end
$var parameter 32 '# ADDR_7SEG_DATA $end
$var parameter 32 (# ADDR_BUTTONS $end
$var parameter 32 )# ADDR_LEDS $end
$var parameter 32 *# ADDR_SWITCHES $end
$var parameter 32 +# RAM_DEPTH $end
$var reg 16 ,# led_reg [15:0] $end
$var reg 32 -# readdata [31:0] $end
$var reg 4 .# seven_seg_an_reg [3:0] $end
$var reg 16 /# seven_seg_data_reg [15:0] $end
$var integer 32 0# i [31:0] $end
$upscope $end
$upscope $end
$enddefinitions $end
$comment Show the parameter values. $end
$dumpall
b100000000000000 +#
b11111111111111110000000000000100 *#
b11111111111111110000000000000000 )#
b11111111111111110000000000001000 (#
b11111111111111110000000000001100 '#
b11111111111111110000000000010000 &#
b100000 {"
b100000 x"
b101 r"
b100000 l"
b100000 f"
b100000 a"
b101 `"
b100000 _"
b100000 W"
b100000 T"
b100000 M"
b100000 E"
b100000 ="
b100000 :"
b100000 7"
b100000 4"
b100000 2"
b100000 *"
b101 )"
b101 g
b101011 f
b111 e
b110 d
b0 c
b1101 b
b10 a
b100 `
b11 _
b100011 ^
b1111 ]
b1001 \
b1100 [
b11 Z
b10 Y
b1011 X
b1010 W
b1000 V
b0 U
b1 T
b1000 S
b101 R
b100 Q
b1000 P
b100010 J
b101010 I
b100101 H
b1000 G
b100100 F
b100000 E
b110 D
b111 C
b1 B
b0 A
b10 @
$end
#0
$dumpvars
b100000000000000 0#
b0 /#
b0 .#
b0 -#
b0 ,#
bx %#
bx $#
b0 ##
b0 "#
b0 !#
b0 ~"
b0 }"
bx |"
bx z"
bx y"
b0 w"
b0x v"
bx u"
bx t"
bx s"
bx q"
b11111 p"
bx o"
bx n"
bx m"
bx k"
bx00 j"
bx i"
b100 h"
bx g"
bx e"
bx d"
bx c"
b100000 b"
bx ^"
bx ]"
bx \"
bx ["
bx Z"
bx Y"
bx X"
bx V"
bx U"
bx S"
bx R"
bx00 Q"
bx P"
bx O"
bx N"
bx L"
b100 K"
b0x J"
bx I"
b100 H"
b10 G"
bx F"
bx D"
bx C"
bx B"
b0x A"
bx @"
bx ?"
bx >"
b0 <"
bx ;"
bx 9"
bx 8"
bx 6"
bx 5"
bx 3"
bx 1"
bx 0"
bx /"
bx ."
bx -"
bx ,"
bx +"
bx ("
bx '"
bx &"
bx %"
bx $"
bx #"
bx0000000000000000 ""
b0 !"
bx ~
bx }
bx |
bx {
bx z
bx y
bx x
bx00 w
bx v
bx u
bx t
b0xxxxxxxxxxxxxxxx s
bx r
bx q
bx p
bx o
bx n
bx m
bx l
bx k
bx j
bx i
bx h
xO
xN
bx M
bx L
bx K
bx ?
bx >
bx =
bx <
bx ;
x:
bx 9
bx 8
x7
x6
b0 5
x4
x3
bx 2
x1
bx 0
x/
bx .
x-
b0 ,
1+
0*
b0 )
bx (
x'
x&
b0 %
bx $
b0 #
b0 "
b0 !
$end
#5000
b0 A"
0-
b100 $"
b100 3"
b100 F"
b100 z"
b100 @"
b100 B"
b0 %#
b111100000100001111111111111111 %
b111100000100001111111111111111 5
b111100000100001111111111111111 !"
b111100000100001111111111111111 <"
b111100000100001111111111111111 w"
b111100000100001111111111111111 -#
b0 v"
04
b10 <
b10 K
b10 o
b10 ?"
b100 x
b100 C"
b100 m"
b0 y
b0 D"
b0 e"
b0 (
b0 =
b0 '"
b0 /"
b0 |"
13
b100 ~
b100 U"
b100 V"
b0 0
b0 m
b0 r
b0 q"
b0 j
b0 2
b0 l
b0 q
b0 R"
b0 ;
b0 ?
b0 h
b1 9
b1 i
b1 p
b1 k"
0:
0/
07
16
0&
1'
11
b1 k
b0 J"
b0xxxxxxxxxxxxxxxxxxxxxxxxxx00 Q"
b100 %"
b100 N"
b100 O"
b100 u"
0N
b0 n
b100 I"
b0 }
b0 1"
b0 L"
b0 X"
b0 c"
1*
#10000
0*
#15000
b11111111111111111111111111111100 w
b11111111111111111111111111111100 j"
b1 9
b1 i
b1 p
b1 k"
16
1'
11
0O
b0 {
b0 9"
b0 ]"
b10000 v
b10000 \"
b10000 s"
b0 |
b0 6"
b0 S"
b0 ^"
b100 u
b100 ["
b100 y"
b10000111111111111111100 Q"
b111111 >
b111111 L
b1111 M
b11111111111111111111111111111111 z
b11111111111111111111111111111111 i"
b1111111111111111 s
b11111111111111110000000000000000 ""
b1111111111111111 +"
b11111 ,"
b11111 o"
b10000 ."
b10000 Z"
b10000 n"
b0 -"
b0 Y"
b100 &"
b100 0"
b100 5"
b100 P"
b100 t"
b111100000100001111111111111111 8
b111100000100001111111111111111 #"
b111100000100001111111111111111 >"
1*
#20000
0*
#25000
b0 ("
b0 8"
b0 d"
b0 $
b0 .
b0 t
b0 ;"
b0 g"
b0 $#
1*
#30000
0*
#35000
1*
#40000
0*
#45000
1O
1-
b11111111111111111111111111111100 B"
b11111111111111111111111111111100 x
b11111111111111111111111111111100 C"
b11111111111111111111111111111100 m"
03
b0 $"
b0 3"
b0 F"
b0 z"
b1 %#
b0 %
b0 5
b0 !"
b0 <"
b0 w"
b0 -#
b1000 ~
b1000 U"
b1000 V"
b11 9
b11 i
b11 p
b11 k"
06
0'
01
b1010 k
b0 @"
b100 y
b100 D"
b100 e"
b100 (
b100 =
b100 '"
b100 /"
b100 |"
b1000 %"
b1000 N"
b1000 O"
b1000 u"
b1 n
b1000 I"
b100 }
b100 1"
b100 L"
b100 X"
b100 c"
0+
1*
#50000
0*
#55000
b11111111111111110000000000000000 B"
0O
b11111111111111110000000000000000 x
b11111111111111110000000000000000 C"
b11111111111111110000000000000000 m"
b1 A"
0-
b11111111111111110000000000000000 $"
b11111111111111110000000000000000 3"
b11111111111111110000000000000000 F"
b11111111111111110000000000000000 z"
b1 <
b1 K
b1 o
b1 ?"
b11111111111111110000000000000000 w
b11111111111111110000000000000000 j"
b11111111111111110000000000000000 @"
b0 y
b0 D"
b0 e"
b0 u
b0 ["
b0 y"
b1011 k
b11 ;
b11 ?
b11 h
1:
b11 9
b11 i
b11 p
b11 k"
b0 &"
b0 0"
b0 5"
b0 P"
b0 t"
b1010 n
1*
#60000
0*
#65000
b0 A"
b0 B"
b100 $"
b100 3"
b100 F"
b100 z"
b10 <
b10 K
b10 o
b10 ?"
b0 x
b0 C"
b0 m"
b11111111111111111111111111111100 w
b11111111111111111111111111111100 j"
b100 @"
b100 y
b100 D"
b100 e"
1/
b0 ;
b0 ?
b0 h
b0 9
b0 i
b0 p
b0 k"
0:
b0 k
b11111111111111110000000000000000 u
b11111111111111110000000000000000 ["
b11111111111111110000000000000000 y"
b1011 n
b11111111111111110000000000000000 &"
b11111111111111110000000000000000 0"
b11111111111111110000000000000000 5"
b11111111111111110000000000000000 P"
b11111111111111110000000000000000 t"
1*
#70000
0*
#75000
b1000 $"
b1000 3"
b1000 F"
b1000 z"
b1000 @"
b100 B"
13
b100 x
b100 C"
b100 m"
b100000000010000000000010101010 %
b100000000010000000000010101010 5
b100000000010000000000010101010 !"
b100000000010000000000010101010 <"
b100000000010000000000010101010 w"
b100000000010000000000010101010 -#
b100 u
b100 ["
b100 y"
b11111111111111110000000000000000 {
b11111111111111110000000000000000 9"
b11111111111111110000000000000000 ]"
b1 k
11
b1 9
b1 i
b1 p
b1 k"
16
1'
0/
b100 &"
b100 0"
b100 5"
b100 P"
b100 t"
b0 n
1*
#80000
0*
#85000
b0 A"
b1010101000 B"
03
b1010110000 $"
b1010110000 3"
b1010110000 F"
b1010110000 z"
b10 %#
b0 %
b0 5
b0 !"
b0 <"
b0 w"
b0 -#
b1100 ~
b1100 U"
b1100 V"
b1010101000 x
b1010101000 C"
b1010101000 m"
b1010101000 w
b1010101000 j"
b11 9
b11 i
b11 p
b11 k"
06
0'
01
b1010 k
b1000000000001010101000 Q"
b101010 >
b101010 L
b1000 M
b1010110000 @"
b1000 y
b1000 D"
b1000 e"
b1000 (
b1000 =
b1000 '"
b1000 /"
b1000 |"
b1100 %"
b1100 N"
b1100 O"
b1100 u"
b1000 u
b1000 ["
b1000 y"
b0 {
b0 9"
b0 ]"
b1000 v
b1000 \"
b1000 s"
b1 n
b100000000010000000000010101010 8
b100000000010000000000010101010 #"
b100000000010000000000010101010 >"
b1100 I"
b1000 }
b1000 1"
b1000 L"
b1000 X"
b1000 c"
b11111111111111110000000000000000 $
b11111111111111110000000000000000 .
b11111111111111110000000000000000 t
b11111111111111110000000000000000 ;"
b11111111111111110000000000000000 g"
b11111111111111110000000000000000 $#
b1000 &"
b1000 0"
b1000 5"
b1000 P"
b1000 t"
b10101010 z
b10101010 i"
b10101010 s
b101010100000000000000000 ""
b10101010 +"
b0 ,"
b0 o"
b1000 ."
b1000 Z"
b1000 n"
1*
#90000
0*
#95000
b10101010 B"
b10101010 $"
b10101010 3"
b10101010 F"
b10101010 z"
b101010100000000000000000 w
b101010100000000000000000 j"
b10101010 @"
b0 y
b0 D"
b0 e"
b1010110000 u
b1010110000 ["
b1010110000 y"
b10101010 x
b10101010 C"
b10101010 m"
b1011 k
1:
b10 9
b10 i
b10 p
b10 k"
b1010110000 &"
b1010110000 0"
b1010110000 5"
b1010110000 P"
b1010110000 t"
b0 $
b0 .
b0 t
b0 ;"
b0 g"
b0 $#
b1010 n
1*
#100000
0*
#105000
b0 B"
b1000 $"
b1000 3"
b1000 F"
b1000 z"
b0 x
b0 C"
b0 m"
b1010101000 w
b1010101000 j"
b1000 @"
b1000 y
b1000 D"
b1000 e"
1/
b0 9
b0 i
b0 p
b0 k"
0:
b0 k
b10101010 u
b10101010 ["
b10101010 y"
b1011 n
b10101010 &"
b10101010 0"
b10101010 5"
b10101010 P"
b10101010 t"
1*
#110000
0*
#115000
b1100 $"
b1100 3"
b1100 F"
b1100 z"
b1100 @"
b100 B"
13
b100 x
b100 C"
b100 m"
b10101110000010000000000000000000 %
b10101110000010000000000000000000 5
b10101110000010000000000000000000 !"
b10101110000010000000000000000000 <"
b10101110000010000000000000000000 w"
b10101110000010000000000000000000 -#
b1000 u
b1000 ["
b1000 y"
b10101010 {
b10101010 9"
b10101010 ]"
b1 k
11
b1 9
b1 i
b1 p
b1 k"
16
1'
0/
b1000 &"
b1000 0"
b1000 5"
b1000 P"
b1000 t"
b0 n
1*
#120000
0*
#125000
b0 B"
b0 x
b0 C"
b0 m"
03
b1100 $"
b1100 3"
b1100 F"
b1100 z"
b11 %#
b0 %
b0 5
b0 !"
b0 <"
b0 w"
b0 -#
b10000 ~
b10000 U"
b10000 V"
b0 w
b0 j"
b11 9
b11 i
b11 p
b11 k"
06
0'
01
b10 k
b1000001000000000000000000000 Q"
b0 >
b0 L
b101011 M
b1100 @"
b1100 y
b1100 D"
b1100 e"
b1100 (
b1100 =
b1100 '"
b1100 /"
b1100 |"
b10000 %"
b10000 N"
b10000 O"
b10000 u"
b1100 u
b1100 ["
b1100 y"
b11111111111111110000000000000000 |
b11111111111111110000000000000000 6"
b11111111111111110000000000000000 S"
b11111111111111110000000000000000 ^"
b1 n
b10101110000010000000000000000000 8
b10101110000010000000000000000000 #"
b10101110000010000000000000000000 >"
b10000 I"
b1100 }
b1100 1"
b1100 L"
b1100 X"
b1100 c"
b10101010 $
b10101010 .
b10101010 t
b10101010 ;"
b10101010 g"
b10101010 $#
b1100 &"
b1100 0"
b1100 5"
b1100 P"
b1100 t"
b0 z
b0 i"
b0 s
b0 ""
b0 +"
b10000 -"
b10000 Y"
1*
#130000
0*
#135000
b1 A"
b11111111111111110000000000000000 $"
b11111111111111110000000000000000 3"
b11111111111111110000000000000000 F"
b11111111111111110000000000000000 z"
b11111111111111110000000000000000 @"
b11111111111111110000000000000000 y
b11111111111111110000000000000000 D"
b11111111111111110000000000000000 e"
b101 k
1:
b10 9
b10 i
b10 p
b10 k"
b11111111111111110000000000000000 ("
b11111111111111110000000000000000 8"
b11111111111111110000000000000000 d"
b10 n
1*
#140000
0*
#145000
b0 %#
b10101010 B"
b0 A"
b10110110 $"
b10110110 3"
b10110110 F"
b10110110 z"
b11111111111111110000000000000000 (
b11111111111111110000000000000000 =
b11111111111111110000000000000000 '"
b11111111111111110000000000000000 /"
b11111111111111110000000000000000 |"
b10101010 x
b10101010 C"
b10101010 m"
b10110110 @"
b1100 y
b1100 D"
b1100 e"
17
1&
b0 9
b0 i
b0 p
b0 k"
0:
b0 k
b11111111111111110000000000000000 u
b11111111111111110000000000000000 ["
b11111111111111110000000000000000 y"
b101 n
b11111111111111110000000000000000 &"
b11111111111111110000000000000000 0"
b11111111111111110000000000000000 5"
b11111111111111110000000000000000 P"
b11111111111111110000000000000000 t"
1*
#150000
0*
#155000
b10000 $"
b10000 3"
b10000 F"
b10000 z"
b10000 @"
b100 B"
b11 %#
13
b100 x
b100 C"
b100 m"
b100000000010010000000000000000 %
b100000000010010000000000000000 5
b100000000010010000000000000000 !"
b100000000010010000000000000000 <"
b100000000010010000000000000000 w"
b100000000010010000000000000000 -#
b1100 (
b1100 =
b1100 '"
b1100 /"
b1100 |"
b10110110 u
b10110110 ["
b10110110 y"
b1 k
11
b1 9
b1 i
b1 p
b1 k"
16
1'
07
0&
b10101010 #
b10101010 ~"
b10101010 ,#
b10110110 &"
b10110110 0"
b10110110 5"
b10110110 P"
b10110110 t"
b0 n
1*
#160000
0*
#165000
b0 B"
b0 x
b0 C"
b0 m"
03
b10000 $"
b10000 3"
b10000 F"
b10000 z"
b100 %#
b0 %
b0 5
b0 !"
b0 <"
b0 w"
b0 -#
b10100 ~
b10100 U"
b10100 V"
b11 9
b11 i
b11 p
b11 k"
06
0'
01
b1010 k
b1001000000000000000000 Q"
b1000 M
b10000 @"
b10000 y
b10000 D"
b10000 e"
b10000 (
b10000 =
b10000 '"
b10000 /"
b10000 |"
b10100 %"
b10100 N"
b10100 O"
b10100 u"
b10000 u
b10000 ["
b10000 y"
b0 {
b0 9"
b0 ]"
b1001 v
b1001 \"
b1001 s"
b0 |
b0 6"
b0 S"
b0 ^"
b1 n
b100000000010010000000000000000 8
b100000000010010000000000000000 #"
b100000000010010000000000000000 >"
b10100 I"
b10000 }
b10000 1"
b10000 L"
b10000 X"
b10000 c"
b10000 &"
b10000 0"
b10000 5"
b10000 P"
b10000 t"
b1001 ."
b1001 Z"
b1001 n"
b0 -"
b0 Y"
1*
#170000
0*
#175000
1O
1-
b0 $"
b0 3"
b0 F"
b0 z"
b0 @"
b0 y
b0 D"
b0 e"
b1011 k
1:
b10 9
b10 i
b10 p
b10 k"
b0 $
b0 .
b0 t
b0 ;"
b0 g"
b0 $#
b0 ("
b0 8"
b0 d"
b1010 n
1*
#180000
0*
#185000
0O
0-
b10000 $"
b10000 3"
b10000 F"
b10000 z"
b10000 @"
b10000 y
b10000 D"
b10000 e"
1/
b0 9
b0 i
b0 p
b0 k"
0:
b0 k
b0 u
b0 ["
b0 y"
b1011 n
b0 &"
b0 0"
b0 5"
b0 P"
b0 t"
1*
#190000
0*
#195000
b10100 $"
b10100 3"
b10100 F"
b10100 z"
b10100 @"
b100 B"
13
b100 x
b100 C"
b100 m"
b100001001010010000000000000001 %
b100001001010010000000000000001 5
b100001001010010000000000000001 !"
b100001001010010000000000000001 <"
b100001001010010000000000000001 w"
b100001001010010000000000000001 -#
b10000 u
b10000 ["
b10000 y"
b1 k
11
b1 9
b1 i
b1 p
b1 k"
16
1'
0/
b10000 &"
b10000 0"
b10000 5"
b10000 P"
b10000 t"
b0 n
1*
#200000
0*
#205000
03
b11000 $"
b11000 3"
b11000 F"
b11000 z"
b101 %#
b0 %
b0 5
b0 !"
b0 <"
b0 w"
b0 -#
b11000 ~
b11000 U"
b11000 V"
b100 w
b100 j"
b11 9
b11 i
b11 p
b11 k"
06
0'
01
b1010 k
b100101001000000000000000100 Q"
b1 >
b1 L
b11000 @"
b10100 y
b10100 D"
b10100 e"
b10100 (
b10100 =
b10100 '"
b10100 /"
b10100 |"
b11000 %"
b11000 N"
b11000 O"
b11000 u"
b10100 u
b10100 ["
b10100 y"
b1 n
b100001001010010000000000000001 8
b100001001010010000000000000001 #"
b100001001010010000000000000001 >"
b11000 I"
b10100 }
b10100 1"
b10100 L"
b10100 X"
b10100 c"
b10100 &"
b10100 0"
b10100 5"
b10100 P"
b10100 t"
b1 z
b1 i"
b1 s
b10000000000000000 ""
b1 +"
b1001 -"
b1001 Y"
1*
#210000
0*
#215000
b1 B"
b1 $"
b1 3"
b1 F"
b1 z"
b10000000000000000 w
b10000000000000000 j"
b1 @"
b0 y
b0 D"
b0 e"
b1 x
b1 C"
b1 m"
b11000 u
b11000 ["
b11000 y"
b1011 k
1:
b10 9
b10 i
b10 p
b10 k"
b11000 &"
b11000 0"
b11000 5"
b11000 P"
b11000 t"
b1010 n
1*
#220000
0*
#225000
b0 B"
b10100 $"
b10100 3"
b10100 F"
b10100 z"
b0 x
b0 C"
b0 m"
b100 w
b100 j"
b10100 @"
b10100 y
b10100 D"
b10100 e"
1/
b0 9
b0 i
b0 p
b0 k"
0:
b0 k
b1 u
b1 ["
b1 y"
b1011 n
b1 &"
b1 0"
b1 5"
b1 P"
b1 t"
1*
#230000
0*
#235000
b11000 $"
b11000 3"
b11000 F"
b11000 z"
b11000 @"
b100 B"
13
b100 x
b100 C"
b100 m"
b100000000010100000000001100100 %
b100000000010100000000001100100 5
b100000000010100000000001100100 !"
b100000000010100000000001100100 <"
b100000000010100000000001100100 w"
b100000000010100000000001100100 -#
b10100 u
b10100 ["
b10100 y"
b1 |
b1 6"
b1 S"
b1 ^"
b1 {
b1 9"
b1 ]"
b1 k
11
b1 9
b1 i
b1 p
b1 k"
16
1'
0/
b10100 &"
b10100 0"
b10100 5"
b10100 P"
b10100 t"
b0 n
1*
#240000
0*
#245000
b110010000 B"
b110010000 x
b110010000 C"
b110010000 m"
03
b110101000 $"
b110101000 3"
b110101000 F"
b110101000 z"
b110 %#
b0 %
b0 5
b0 !"
b0 <"
b0 w"
b0 -#
b11100 ~
b11100 U"
b11100 V"
b110010000 w
b110010000 j"
b11 9
b11 i
b11 p
b11 k"
06
0'
01
b1010 k
b1010000000000110010000 Q"
b100100 >
b100100 L
b110101000 @"
b11000 y
b11000 D"
b11000 e"
b11000 (
b11000 =
b11000 '"
b11000 /"
b11000 |"
b11100 %"
b11100 N"
b11100 O"
b11100 u"
b11000 u
b11000 ["
b11000 y"
b0 {
b0 9"
b0 ]"
b1010 v
b1010 \"
b1010 s"
b0 |
b0 6"
b0 S"
b0 ^"
b1 n
b100000000010100000000001100100 8
b100000000010100000000001100100 #"
b100000000010100000000001100100 >"
b11100 I"
b11000 }
b11000 1"
b11000 L"
b11000 X"
b11000 c"
b1 ("
b1 8"
b1 d"
b1 $
b1 .
b1 t
b1 ;"
b1 g"
b1 $#
b11000 &"
b11000 0"
b11000 5"
b11000 P"
b11000 t"
b1100100 z
b1100100 i"
b1100100 s
b11001000000000000000000 ""
b1100100 +"
b1010 ."
b1010 Z"
b1010 n"
b0 -"
b0 Y"
1*
#250000
0*
#255000
b1100100 B"
b1100100 $"
b1100100 3"
b1100100 F"
b1100100 z"
b11001000000000000000000 w
b11001000000000000000000 j"
b1100100 @"
b0 y
b0 D"
b0 e"
b110101000 u
b110101000 ["
b110101000 y"
b1100100 x
b1100100 C"
b1100100 m"
b1011 k
1:
b10 9
b10 i
b10 p
b10 k"
b110101000 &"
b110101000 0"
b110101000 5"
b110101000 P"
b110101000 t"
b0 $
b0 .
b0 t
b0 ;"
b0 g"
b0 $#
b0 ("
b0 8"
b0 d"
b1010 n
1*
#260000
0*
#265000
b0 B"
b11000 $"
b11000 3"
b11000 F"
b11000 z"
b0 x
b0 C"
b0 m"
b110010000 w
b110010000 j"
b11000 @"
b11000 y
b11000 D"
b11000 e"
1/
b0 9
b0 i
b0 p
b0 k"
0:
b0 k
b1100100 u
b1100100 ["
b1100100 y"
b1011 n
b1100100 &"
b1100100 0"
b1100100 5"
b1100100 P"
b1100100 t"
1*
#270000
0*
#275000
b11100 $"
b11100 3"
b11100 F"
b11100 z"
b11100 @"
b100 B"
13
b100 x
b100 C"
b100 m"
b1001010100101100000101010 %
b1001010100101100000101010 5
b1001010100101100000101010 !"
b1001010100101100000101010 <"
b1001010100101100000101010 w"
b1001010100101100000101010 -#
b11000 u
b11000 ["
b11000 y"
b1100100 {
b1100100 9"
b1100100 ]"
b1 k
11
b1 9
b1 i
b1 p
b1 k"
16
1'
0/
b11000 &"
b11000 0"
b11000 5"
b11000 P"
b11000 t"
b0 n
1*
#280000
0*
