sim_iverilog/output2.txt
WARNING: exmemory.v:109: $readmemh: The behaviour for reg[...] mem[N:0]; $readmemh("...", mem); changed in the 1364-2005 standard. To avoid ambiguity, use mem[0:N] or explicit range parameters $readmemh("...", mem, start, stop);. Defaulting to 1364-2005 behavior.
WARNING: exmemory.v:109: $readmemh(programs/simple_program.hex): Not enough words in the file for the requested range [0:16383].
VCD info: dumpfile cpu_sim.vcd opened for output.
========================================
MIPS CPU Simulation Testbench
========================================
Time	PC		Instr		ALUOut		LEDs
----------------------------------------

[INIT] First PC after reset: 00000004
[INIT] First instruction: 200800aa

55000	00000004	200800aa	00000004	0000000000000000
  [STATE] 0001, regwrite=0, memwrite=0, op=0f, irwrite=0, memdata=00000000, instr=3c10ffff
65000	00000004	200800aa	00000000	0000000000000000
  [STATE] 1010, regwrite=0, memwrite=0, op=00, irwrite=0, memdata=00000000, instr=00000000
75000	00000004	200800aa	00000000	0000000000000000
  [REG WRITE] $r0 <= 00000000 (PC=00000004, state=1011, instr=00000000, rt= 0, rd= 0)
  [STATE] 1011, regwrite=1, memwrite=0, op=00, irwrite=0, memdata=00000000, instr=00000000
85000	00000004	200800aa	00000004	0000000000000000
  [STATE] 0000, regwrite=0, memwrite=0, op=00, irwrite=1, memdata=200800aa, instr=00000000
95000	00000008	ae080000	00000008	0000000000000000
  [STATE] 0001, regwrite=0, memwrite=0, op=08, irwrite=0, memdata=00000000, instr=200800aa
105000	00000008	ae080000	000002b0	0000000000000000
  [STATE] 1010, regwrite=0, memwrite=0, op=00, irwrite=0, memdata=00000000, instr=00000000
115000	00000008	ae080000	00000000	0000000000000000
  [REG WRITE] $r0 <= 00000000 (PC=00000008, state=1011, instr=00000000, rt= 0, rd= 0)
  [STATE] 1011, regwrite=1, memwrite=0, op=00, irwrite=0, memdata=00000000, instr=00000000
125000	00000008	ae080000	00000008	0000000000000000
  [STATE] 0000, regwrite=0, memwrite=0, op=00, irwrite=1, memdata=ae080000, instr=00000000
135000	0000000c	20090000	0000000c	0000000000000000
  [STATE] 0001, regwrite=0, memwrite=0, op=2b, irwrite=0, memdata=00000000, instr=ae080000
145000	0000000c	20090000	0000000c	0000000000000000
  [STATE] 0010, regwrite=0, memwrite=0, op=00, irwrite=0, memdata=00000000, instr=00000000
155000	0000000c	20090000	00000000	0000000000000000
  [STATE] 0000, regwrite=0, memwrite=0, op=00, irwrite=1, memdata=20090000, instr=00000000
165000	00000010	21290001	00000010	0000000000000000
  [STATE] 0001, regwrite=0, memwrite=0, op=08, irwrite=0, memdata=00000000, instr=20090000
175000	00000010	21290001	00000010	0000000000000000
  [STATE] 1010, regwrite=0, memwrite=0, op=00, irwrite=0, memdata=00000000, instr=00000000
185000	00000010	21290001	00000000	0000000000000000
  [REG WRITE] $r0 <= 00000000 (PC=00000010, state=1011, instr=00000000, rt= 0, rd= 0)
  [STATE] 1011, regwrite=1, memwrite=0, op=00, irwrite=0, memdata=00000000, instr=00000000
195000	00000010	21290001	00000010	0000000000000000
  [STATE] 0000, regwrite=0, memwrite=0, op=00, irwrite=1, memdata=21290001, instr=00000000
205000	00000014	200a0064	00000014	0000000000000000
  [STATE] 0001, regwrite=0, memwrite=0, op=08, irwrite=0, memdata=00000000, instr=21290001
215000	00000014	200a0064	00000018	0000000000000000
  [STATE] 1010, regwrite=0, memwrite=0, op=00, irwrite=0, memdata=00000000, instr=00000000
225000	00000014	200a0064	00000000	0000000000000000
  [REG WRITE] $r0 <= 00000000 (PC=00000014, state=1011, instr=00000000, rt= 0, rd= 0)
  [STATE] 1011, regwrite=1, memwrite=0, op=00, irwrite=0, memdata=00000000, instr=00000000
235000	00000014	200a0064	00000014	0000000000000000
  [STATE] 0000, regwrite=0, memwrite=0, op=00, irwrite=1, memdata=200a0064, instr=00000000
245000	00000018	012a582a	00000018	0000000000000000
  [STATE] 0001, regwrite=0, memwrite=0, op=08, irwrite=0, memdata=00000000, instr=200a0064
255000	00000018	012a582a	000001a8	0000000000000000
  [STATE] 1010, regwrite=0, memwrite=0, op=00, irwrite=0, memdata=00000000, instr=00000000
265000	00000018	012a582a	00000000	0000000000000000
  [REG WRITE] $r0 <= 00000000 (PC=00000018, state=1011, instr=00000000, rt= 0, rd= 0)
  [STATE] 1011, regwrite=1, memwrite=0, op=00, irwrite=0, memdata=00000000, instr=00000000
275000	00000018	012a582a	00000018	0000000000000000
  [STATE] 0000, regwrite=0, memwrite=0, op=00, irwrite=1, memdata=012a582a, instr=00000000
285000	0000001c	1560fffc	0000001c	0000000000000000
  [STATE] 0001, regwrite=0, memwrite=0, op=00, irwrite=0, memdata=00000000, instr=012a582a
295000	0000001c	1560fffc	000160c4	0000000000000000
  [STATE] 0110, regwrite=0, memwrite=0, op=00, irwrite=0, memdata=00000000, instr=00000000
305000	0000001c	1560fffc	xxxxxxxx	0000000000000000
  [REG WRITE] $r0 <= xxxxxxxx (PC=0000001c, state=0111, instr=00000000, rt= 0, rd= 0)
  [STATE] 0111, regwrite=1, memwrite=0, op=00, irwrite=0, memdata=00000000, instr=00000000
315000	0000001c	1560fffc	0000001c	0000000000000000
  [STATE] 0000, regwrite=0, memwrite=0, op=00, irwrite=1, memdata=1560fffc, instr=00000000
325000	00000020	20080055	00000020	0000000000000000
  [STATE] 0001, regwrite=0, memwrite=0, op=05, irwrite=0, memdata=00000000, instr=1560fffc
335000	00000020	20080055	00000010	0000000000000000
  [STATE] 1000, regwrite=0, memwrite=0, op=00, irwrite=0, memdata=00000000, instr=00000000
345000	00000010	21290001	00000000	0000000000000000
  [STATE] 0000, regwrite=0, memwrite=0, op=00, irwrite=1, memdata=21290001, instr=00000000
355000	00000014	200a0064	00000014	0000000000000000
  [STATE] 0001, regwrite=0, memwrite=0, op=08, irwrite=0, memdata=00000000, instr=21290001
365000	00000014	200a0064	00000018	0000000000000000
  [STATE] 1010, regwrite=0, memwrite=0, op=00, irwrite=0, memdata=00000000, instr=00000000
375000	00000014	200a0064	00000000	0000000000000000
  [REG WRITE] $r0 <= 00000000 (PC=00000014, state=1011, instr=00000000, rt= 0, rd= 0)
  [STATE] 1011, regwrite=1, memwrite=0, op=00, irwrite=0, memdata=00000000, instr=00000000
385000	00000014	200a0064	00000014	0000000000000000
  [STATE] 0000, regwrite=0, memwrite=0, op=00, irwrite=1, memdata=200a0064, instr=00000000
395000	00000018	012a582a	00000018	0000000000000000
  [STATE] 0001, regwrite=0, memwrite=0, op=08, irwrite=0, memdata=00000000, instr=200a0064
405000	00000018	012a582a	000001a8	0000000000000000
  [STATE] 1010, regwrite=0, memwrite=0, op=00, irwrite=0, memdata=00000000, instr=00000000
415000	00000018	012a582a	00000000	0000000000000000
  [REG WRITE] $r0 <= 00000000 (PC=00000018, state=1011, instr=00000000, rt= 0, rd= 0)
  [STATE] 1011, regwrite=1, memwrite=0, op=00, irwrite=0, memdata=00000000, instr=00000000
425000	00000018	012a582a	00000018	0000000000000000
  [STATE] 0000, regwrite=0, memwrite=0, op=00, irwrite=1, memdata=012a582a, instr=00000000
435000	0000001c	1560fffc	0000001c	0000000000000000
  [STATE] 0001, regwrite=0, memwrite=0, op=00, irwrite=0, memdata=00000000, instr=012a582a
445000	0000001c	1560fffc	000160c4	0000000000000000
  [STATE] 0110, regwrite=0, memwrite=0, op=00, irwrite=0, memdata=00000000, instr=00000000
455000	0000001c	1560fffc	xxxxxxxx	0000000000000000
  [REG WRITE] $r0 <= xxxxxxxx (PC=0000001c, state=0111, instr=00000000, rt= 0, rd= 0)
  [STATE] 0111, regwrite=1, memwrite=0, op=00, irwrite=0, memdata=00000000, instr=00000000
465000	0000001c	1560fffc	0000001c	0000000000000000
  [STATE] 0000, regwrite=0, memwrite=0, op=00, irwrite=1, memdata=1560fffc, instr=00000000
475000	00000020	20080055	00000020	0000000000000000
  [STATE] 0001, regwrite=0, memwrite=0, op=05, irwrite=0, memdata=00000000, instr=1560fffc
485000	00000020	20080055	00000010	0000000000000000
  [STATE] 1000, regwrite=0, memwrite=0, op=00, irwrite=0, memdata=00000000, instr=00000000
495000	00000010	21290001	00000000	0000000000000000
  [STATE] 0000, regwrite=0, memwrite=0, op=00, irwrite=1, memdata=21290001, instr=00000000
505000	00000014	200a0064	00000014	0000000000000000
  [STATE] 0001, regwrite=0, memwrite=0, op=08, irwrite=0, memdata=00000000, instr=21290001
515000	00000014	200a0064	00000018	0000000000000000
  [STATE] 1010, regwrite=0, memwrite=0, op=00, irwrite=0, memdata=00000000, instr=00000000
525000	00000014	200a0064	00000000	0000000000000000
  [REG WRITE] $r0 <= 00000000 (PC=00000014, state=1011, instr=00000000, rt= 0, rd= 0)
  [STATE] 1011, regwrite=1, memwrite=0, op=00, irwrite=0, memdata=00000000, instr=00000000
535000	00000014	200a0064	00000014	0000000000000000
  [STATE] 0000, regwrite=0, memwrite=0, op=00, irwrite=1, memdata=200a0064, instr=00000000
545000	00000018	012a582a	00000018	0000000000000000
  [STATE] 0001, regwrite=0, memwrite=0, op=08, irwrite=0, memdata=00000000, instr=200a0064
555000	00000018	012a582a	000001a8	0000000000000000
  [STATE] 1010, regwrite=0, memwrite=0, op=00, irwrite=0, memdata=00000000, instr=00000000
565000	00000018	012a582a	00000000	0000000000000000
  [REG WRITE] $r0 <= 00000000 (PC=00000018, state=1011, instr=00000000, rt= 0, rd= 0)
  [STATE] 1011, regwrite=1, memwrite=0, op=00, irwrite=0, memdata=00000000, instr=00000000
575000	00000018	012a582a	00000018	0000000000000000
  [STATE] 0000, regwrite=0, memwrite=0, op=00, irwrite=1, memdata=012a582a, instr=00000000
585000	0000001c	1560fffc	0000001c	0000000000000000
  [STATE] 0001, regwrite=0, memwrite=0, op=00, irwrite=0, memdata=00000000, instr=012a582a
595000	0000001c	1560fffc	000160c4	0000000000000000
  [STATE] 0110, regwrite=0, memwrite=0, op=00, irwrite=0, memdata=00000000, instr=00000000
605000	0000001c	1560fffc	xxxxxxxx	0000000000000000
  [REG WRITE] $r0 <= xxxxxxxx (PC=0000001c, state=0111, instr=00000000, rt= 0, rd= 0)
  [STATE] 0111, regwrite=1, memwrite=0, op=00, irwrite=0, memdata=00000000, instr=00000000
615000	0000001c	1560fffc	0000001c	0000000000000000
  [STATE] 0000, regwrite=0, memwrite=0, op=00, irwrite=1, memdata=1560fffc, instr=00000000
625000	00000020	20080055	00000020	0000000000000000
  [STATE] 0001, regwrite=0, memwrite=0, op=05, irwrite=0, memdata=00000000, instr=1560fffc
635000	00000020	20080055	00000010	0000000000000000
  [STATE] 1000, regwrite=0, memwrite=0, op=00, irwrite=0, memdata=00000000, instr=00000000
645000	00000010	21290001	00000000	0000000000000000
  [STATE] 0000, regwrite=0, memwrite=0, op=00, irwrite=1, memdata=21290001, instr=00000000
655000	00000014	200a0064	00000014	0000000000000000
  [STATE] 0001, regwrite=0, memwrite=0, op=08, irwrite=0, memdata=00000000, instr=21290001
665000	00000014	200a0064	00000018	0000000000000000
  [STATE] 1010, regwrite=0, memwrite=0, op=00, irwrite=0, memdata=00000000, instr=00000000
675000	00000014	200a0064	00000000	0000000000000000
  [REG WRITE] $r0 <= 00000000 (PC=00000014, state=1011, instr=00000000, rt= 0, rd= 0)
  [STATE] 1011, regwrite=1, memwrite=0, op=00, irwrite=0, memdata=00000000, instr=00000000
685000	00000014	200a0064	00000014	0000000000000000
  [STATE] 0000, regwrite=0, memwrite=0, op=00, irwrite=1, memdata=200a0064, instr=00000000
695000	00000018	012a582a	00000018	0000000000000000
  [STATE] 0001, regwrite=0, memwrite=0, op=08, irwrite=0, memdata=00000000, instr=200a0064
705000	00000018	012a582a	000001a8	0000000000000000
  [STATE] 1010, regwrite=0, memwrite=0, op=00, irwrite=0, memdata=00000000, instr=00000000
715000	00000018	012a582a	00000000	0000000000000000
  [REG WRITE] $r0 <= 00000000 (PC=00000018, state=1011, instr=00000000, rt= 0, rd= 0)
  [STATE] 1011, regwrite=1, memwrite=0, op=00, irwrite=0, memdata=00000000, instr=00000000
725000	00000018	012a582a	00000018	0000000000000000
  [STATE] 0000, regwrite=0, memwrite=0, op=00, irwrite=1, memdata=012a582a, instr=00000000
735000	0000001c	1560fffc	0000001c	0000000000000000
  [STATE] 0001, regwrite=0, memwrite=0, op=00, irwrite=0, memdata=00000000, instr=012a582a
745000	0000001c	1560fffc	000160c4	0000000000000000
  [STATE] 0110, regwrite=0, memwrite=0, op=00, irwrite=0, memdata=00000000, instr=00000000
755000	0000001c	1560fffc	xxxxxxxx	0000000000000000
  [REG WRITE] $r0 <= xxxxxxxx (PC=0000001c, state=0111, instr=00000000, rt= 0, rd= 0)
  [STATE] 0111, regwrite=1, memwrite=0, op=00, irwrite=0, memdata=00000000, instr=00000000
765000	0000001c	1560fffc	0000001c	0000000000000000
  [STATE] 0000, regwrite=0, memwrite=0, op=00, irwrite=1, memdata=1560fffc, instr=00000000
775000	00000020	20080055	00000020	0000000000000000
  [STATE] 0001, regwrite=0, memwrite=0, op=05, irwrite=0, memdata=00000000, instr=1560fffc
785000	00000020	20080055	00000010	0000000000000000
  [STATE] 1000, regwrite=0, memwrite=0, op=00, irwrite=0, memdata=00000000, instr=00000000
795000	00000010	21290001	00000000	0000000000000000
  [STATE] 0000, regwrite=0, memwrite=0, op=00, irwrite=1, memdata=21290001, instr=00000000
805000	00000014	200a0064	00000014	0000000000000000
  [STATE] 0001, regwrite=0, memwrite=0, op=08, irwrite=0, memdata=00000000, instr=21290001
815000	00000014	200a0064	00000018	0000000000000000
  [STATE] 1010, regwrite=0, memwrite=0, op=00, irwrite=0, memdata=00000000, instr=00000000
825000	00000014	200a0064	00000000	0000000000000000
  [REG WRITE] $r0 <= 00000000 (PC=00000014, state=1011, instr=00000000, rt= 0, rd= 0)
  [STATE] 1011, regwrite=1, memwrite=0, op=00, irwrite=0, memdata=00000000, instr=00000000
835000	00000014	200a0064	00000014	0000000000000000
  [STATE] 0000, regwrite=0, memwrite=0, op=00, irwrite=1, memdata=200a0064, instr=00000000
845000	00000018	012a582a	00000018	0000000000000000
  [STATE] 0001, regwrite=0, memwrite=0, op=08, irwrite=0, memdata=00000000, instr=200a0064
855000	00000018	012a582a	000001a8	0000000000000000
  [STATE] 1010, regwrite=0, memwrite=0, op=00, irwrite=0, memdata=00000000, instr=00000000
865000	00000018	012a582a	00000000	0000000000000000
  [REG WRITE] $r0 <= 00000000 (PC=00000018, state=1011, instr=00000000, rt= 0, rd= 0)
  [STATE] 1011, regwrite=1, memwrite=0, op=00, irwrite=0, memdata=00000000, instr=00000000
875000	00000018	012a582a	00000018	0000000000000000
  [STATE] 0000, regwrite=0, memwrite=0, op=00, irwrite=1, memdata=012a582a, instr=00000000
885000	0000001c	1560fffc	0000001c	0000000000000000
  [STATE] 0001, regwrite=0, memwrite=0, op=00, irwrite=0, memdata=00000000, instr=012a582a
895000	0000001c	1560fffc	000160c4	0000000000000000
  [STATE] 0110, regwrite=0, memwrite=0, op=00, irwrite=0, memdata=00000000, instr=00000000
905000	0000001c	1560fffc	xxxxxxxx	0000000000000000
  [REG WRITE] $r0 <= xxxxxxxx (PC=0000001c, state=0111, instr=00000000, rt= 0, rd= 0)
  [STATE] 0111, regwrite=1, memwrite=0, op=00, irwrite=0, memdata=00000000, instr=00000000
915000	0000001c	1560fffc	0000001c	0000000000000000
  [STATE] 0000, regwrite=0, memwrite=0, op=00, irwrite=1, memdata=1560fffc, instr=00000000
925000	00000020	20080055	00000020	0000000000000000
  [STATE] 0001, regwrite=0, memwrite=0, op=05, irwrite=0, memdata=00000000, instr=1560fffc
935000	00000020	20080055	00000010	0000000000000000
  [STATE] 1000, regwrite=0, memwrite=0, op=00, irwrite=0, memdata=00000000, instr=00000000
945000	00000010	21290001	00000000	0000000000000000
  [STATE] 0000, regwrite=0, memwrite=0, op=00, irwrite=1, memdata=21290001, instr=00000000
955000	00000014	200a0064	00000014	0000000000000000
  [STATE] 0001, regwrite=0, memwrite=0, op=08, irwrite=0, memdata=00000000, instr=21290001
965000	00000014	200a0064	00000018	0000000000000000
  [STATE] 1010, regwrite=0, memwrite=0, op=00, irwrite=0, memdata=00000000, instr=00000000
975000	00000014	200a0064	00000000	0000000000000000
  [REG WRITE] $r0 <= 00000000 (PC=00000014, state=1011, instr=00000000, rt= 0, rd= 0)
  [STATE] 1011, regwrite=1, memwrite=0, op=00, irwrite=0, memdata=00000000, instr=00000000
985000	00000014	200a0064	00000014	0000000000000000
  [STATE] 0000, regwrite=0, memwrite=0, op=00, irwrite=1, memdata=200a0064, instr=00000000
995000	00000018	012a582a	00000018	0000000000000000
  [STATE] 0001, regwrite=0, memwrite=0, op=08, irwrite=0, memdata=00000000, instr=200a0064
1005000	00000018	012a582a	000001a8	0000000000000000
1015000	00000018	012a582a	00000000	0000000000000000
  [REG WRITE] $r0 <= 00000000 (PC=00000018, state=1011, instr=00000000, rt= 0, rd= 0)
1025000	00000018	012a582a	00000018	0000000000000000
1035000	0000001c	1560fffc	0000001c	0000000000000000
1045000	0000001c	1560fffc	000160c4	0000000000000000

[1055000] Switches changed to: 0001
1055000	0000001c	1560fffc	xxxxxxxx	0000000000000000
  [REG WRITE] $r0 <= xxxxxxxx (PC=0000001c, state=0111, instr=00000000, rt= 0, rd= 0)
1065000	0000001c	1560fffc	0000001c	0000000000000000
1075000	00000020	20080055	00000020	0000000000000000
1085000	00000020	20080055	00000010	0000000000000000
1095000	00000010	21290001	00000000	0000000000000000
1105000	00000014	200a0064	00000014	0000000000000000
1115000	00000014	200a0064	00000018	0000000000000000
1125000	00000014	200a0064	00000000	0000000000000000
  [REG WRITE] $r0 <= 00000000 (PC=00000014, state=1011, instr=00000000, rt= 0, rd= 0)
1135000	00000014	200a0064	00000014	0000000000000000
1145000	00000018	012a582a	00000018	0000000000000000
1155000	00000018	012a582a	000001a8	0000000000000000
1165000	00000018	012a582a	00000000	0000000000000000
  [REG WRITE] $r0 <= 00000000 (PC=00000018, state=1011, instr=00000000, rt= 0, rd= 0)
1175000	00000018	012a582a	00000018	0000000000000000
1185000	0000001c	1560fffc	0000001c	0000000000000000
1195000	0000001c	1560fffc	000160c4	0000000000000000
1205000	0000001c	1560fffc	xxxxxxxx	0000000000000000
  [REG WRITE] $r0 <= xxxxxxxx (PC=0000001c, state=0111, instr=00000000, rt= 0, rd= 0)
1215000	0000001c	1560fffc	0000001c	0000000000000000
1225000	00000020	20080055	00000020	0000000000000000
1235000	00000020	20080055	00000010	0000000000000000
1245000	00000010	21290001	00000000	0000000000000000
1255000	00000014	200a0064	00000014	0000000000000000
1265000	00000014	200a0064	00000018	0000000000000000
1275000	00000014	200a0064	00000000	0000000000000000
  [REG WRITE] $r0 <= 00000000 (PC=00000014, state=1011, instr=00000000, rt= 0, rd= 0)
1285000	00000014	200a0064	00000014	0000000000000000
1295000	00000018	012a582a	00000018	0000000000000000
1305000	00000018	012a582a	000001a8	0000000000000000
1315000	00000018	012a582a	00000000	0000000000000000
  [REG WRITE] $r0 <= 00000000 (PC=00000018, state=1011, instr=00000000, rt= 0, rd= 0)
1325000	00000018	012a582a	00000018	0000000000000000
1335000	0000001c	1560fffc	0000001c	0000000000000000
1345000	0000001c	1560fffc	000160c4	0000000000000000
1355000	0000001c	1560fffc	xxxxxxxx	0000000000000000
  [REG WRITE] $r0 <= xxxxxxxx (PC=0000001c, state=0111, instr=00000000, rt= 0, rd= 0)
1365000	0000001c	1560fffc	0000001c	0000000000000000
1375000	00000020	20080055	00000020	0000000000000000
1385000	00000020	20080055	00000010	0000000000000000
1395000	00000010	21290001	00000000	0000000000000000
1405000	00000014	200a0064	00000014	0000000000000000
1415000	00000014	200a0064	00000018	0000000000000000
1425000	00000014	200a0064	00000000	0000000000000000
  [REG WRITE] $r0 <= 00000000 (PC=00000014, state=1011, instr=00000000, rt= 0, rd= 0)
1435000	00000014	200a0064	00000014	0000000000000000
1445000	00000018	012a582a	00000018	0000000000000000
1455000	00000018	012a582a	000001a8	0000000000000000
1465000	00000018	012a582a	00000000	0000000000000000
  [REG WRITE] $r0 <= 00000000 (PC=00000018, state=1011, instr=00000000, rt= 0, rd= 0)
1475000	00000018	012a582a	00000018	0000000000000000
1485000	0000001c	1560fffc	0000001c	0000000000000000
1495000	0000001c	1560fffc	000160c4	0000000000000000
1505000	0000001c	1560fffc	xxxxxxxx	0000000000000000
  [REG WRITE] $r0 <= xxxxxxxx (PC=0000001c, state=0111, instr=00000000, rt= 0, rd= 0)
1515000	0000001c	1560fffc	0000001c	0000000000000000
1525000	00000020	20080055	00000020	0000000000000000
1535000	00000020	20080055	00000010	0000000000000000
1545000	00000010	21290001	00000000	0000000000000000
1555000	00000014	200a0064	00000014	0000000000000000
1565000	00000014	200a0064	00000018	0000000000000000
1575000	00000014	200a0064	00000000	0000000000000000
  [REG WRITE] $r0 <= 00000000 (PC=00000014, state=1011, instr=00000000, rt= 0, rd= 0)
1585000	00000014	200a0064	00000014	0000000000000000
1595000	00000018	012a582a	00000018	0000000000000000
1605000	00000018	012a582a	000001a8	0000000000000000
1615000	00000018	012a582a	00000000	0000000000000000
  [REG WRITE] $r0 <= 00000000 (PC=00000018, state=1011, instr=00000000, rt= 0, rd= 0)
1625000	00000018	012a582a	00000018	0000000000000000
1635000	0000001c	1560fffc	0000001c	0000000000000000
1645000	0000001c	1560fffc	000160c4	0000000000000000
1655000	0000001c	1560fffc	xxxxxxxx	0000000000000000
  [REG WRITE] $r0 <= xxxxxxxx (PC=0000001c, state=0111, instr=00000000, rt= 0, rd= 0)
1665000	0000001c	1560fffc	0000001c	0000000000000000
1675000	00000020	20080055	00000020	0000000000000000
1685000	00000020	20080055	00000010	0000000000000000
1695000	00000010	21290001	00000000	0000000000000000
1705000	00000014	200a0064	00000014	0000000000000000
1715000	00000014	200a0064	00000018	0000000000000000
1725000	00000014	200a0064	00000000	0000000000000000
  [REG WRITE] $r0 <= 00000000 (PC=00000014, state=1011, instr=00000000, rt= 0, rd= 0)
1735000	00000014	200a0064	00000014	0000000000000000
1745000	00000018	012a582a	00000018	0000000000000000
1755000	00000018	012a582a	000001a8	0000000000000000
1765000	00000018	012a582a	00000000	0000000000000000
  [REG WRITE] $r0 <= 00000000 (PC=00000018, state=1011, instr=00000000, rt= 0, rd= 0)
1775000	00000018	012a582a	00000018	0000000000000000
1785000	0000001c	1560fffc	0000001c	0000000000000000
1795000	0000001c	1560fffc	000160c4	0000000000000000
1805000	0000001c	1560fffc	xxxxxxxx	0000000000000000
  [REG WRITE] $r0 <= xxxxxxxx (PC=0000001c, state=0111, instr=00000000, rt= 0, rd= 0)
1815000	0000001c	1560fffc	0000001c	0000000000000000
1825000	00000020	20080055	00000020	0000000000000000
1835000	00000020	20080055	00000010	0000000000000000
1845000	00000010	21290001	00000000	0000000000000000
1855000	00000014	200a0064	00000014	0000000000000000
1865000	00000014	200a0064	00000018	0000000000000000
1875000	00000014	200a0064	00000000	0000000000000000
  [REG WRITE] $r0 <= 00000000 (PC=00000014, state=1011, instr=00000000, rt= 0, rd= 0)
1885000	00000014	200a0064	00000014	0000000000000000
1895000	00000018	012a582a	00000018	0000000000000000
1905000	00000018	012a582a	000001a8	0000000000000000
1915000	00000018	012a582a	00000000	0000000000000000
  [REG WRITE] $r0 <= 00000000 (PC=00000018, state=1011, instr=00000000, rt= 0, rd= 0)
1925000	00000018	012a582a	00000018	0000000000000000
1935000	0000001c	1560fffc	0000001c	0000000000000000
1945000	0000001c	1560fffc	000160c4	0000000000000000
1955000	0000001c	1560fffc	xxxxxxxx	0000000000000000
  [REG WRITE] $r0 <= xxxxxxxx (PC=0000001c, state=0111, instr=00000000, rt= 0, rd= 0)
1965000	0000001c	1560fffc	0000001c	0000000000000000
1975000	00000020	20080055	00000020	0000000000000000
1985000	00000020	20080055	00000010	0000000000000000
1995000	00000010	21290001	00000000	0000000000000000
2005000	00000014	200a0064	00000014	0000000000000000
2015000	00000014	200a0064	00000018	0000000000000000
2025000	00000014	200a0064	00000000	0000000000000000
  [REG WRITE] $r0 <= 00000000 (PC=00000014, state=1011, instr=00000000, rt= 0, rd= 0)
2035000	00000014	200a0064	00000014	0000000000000000
2045000	00000018	012a582a	00000018	0000000000000000
[2055000] Button pressed: 00001
2055000	00000018	012a582a	000001a8	0000000000000000
2065000	00000018	012a582a	00000000	0000000000000000
  [REG WRITE] $r0 <= 00000000 (PC=00000018, state=1011, instr=00000000, rt= 0, rd= 0)
2075000	00000018	012a582a	00000018	0000000000000000
2085000	0000001c	1560fffc	0000001c	0000000000000000
2095000	0000001c	1560fffc	000160c4	0000000000000000
2105000	0000001c	1560fffc	xxxxxxxx	0000000000000000
  [REG WRITE] $r0 <= xxxxxxxx (PC=0000001c, state=0111, instr=00000000, rt= 0, rd= 0)
2115000	0000001c	1560fffc	0000001c	0000000000000000
2125000	00000020	20080055	00000020	0000000000000000
2135000	00000020	20080055	00000010	0000000000000000
2145000	00000010	21290001	00000000	0000000000000000
2155000	00000014	200a0064	00000014	0000000000000000
2165000	00000014	200a0064	00000018	0000000000000000
2175000	00000014	200a0064	00000000	0000000000000000
  [REG WRITE] $r0 <= 00000000 (PC=00000014, state=1011, instr=00000000, rt= 0, rd= 0)
2185000	00000014	200a0064	00000014	0000000000000000
2195000	00000018	012a582a	00000018	0000000000000000
2205000	00000018	012a582a	000001a8	0000000000000000
2215000	00000018	012a582a	00000000	0000000000000000
  [REG WRITE] $r0 <= 00000000 (PC=00000018, state=1011, instr=00000000, rt= 0, rd= 0)
2225000	00000018	012a582a	00000018	0000000000000000
2235000	0000001c	1560fffc	0000001c	0000000000000000
2245000	0000001c	1560fffc	000160c4	0000000000000000
2255000	0000001c	1560fffc	xxxxxxxx	0000000000000000
  [REG WRITE] $r0 <= xxxxxxxx (PC=0000001c, state=0111, instr=00000000, rt= 0, rd= 0)
2265000	0000001c	1560fffc	0000001c	0000000000000000
2275000	00000020	20080055	00000020	0000000000000000
2285000	00000020	20080055	00000010	0000000000000000
2295000	00000010	21290001	00000000	0000000000000000
2305000	00000014	200a0064	00000014	0000000000000000
2315000	00000014	200a0064	00000018	0000000000000000
2325000	00000014	200a0064	00000000	0000000000000000
  [REG WRITE] $r0 <= 00000000 (PC=00000014, state=1011, instr=00000000, rt= 0, rd= 0)
2335000	00000014	200a0064	00000014	0000000000000000
2345000	00000018	012a582a	00000018	0000000000000000
2355000	00000018	012a582a	000001a8	0000000000000000
2365000	00000018	012a582a	00000000	0000000000000000
  [REG WRITE] $r0 <= 00000000 (PC=00000018, state=1011, instr=00000000, rt= 0, rd= 0)
2375000	00000018	012a582a	00000018	0000000000000000
2385000	0000001c	1560fffc	0000001c	0000000000000000
2395000	0000001c	1560fffc	000160c4	0000000000000000
2405000	0000001c	1560fffc	xxxxxxxx	0000000000000000
  [REG WRITE] $r0 <= xxxxxxxx (PC=0000001c, state=0111, instr=00000000, rt= 0, rd= 0)
2415000	0000001c	1560fffc	0000001c	0000000000000000
2425000	00000020	20080055	00000020	0000000000000000
2435000	00000020	20080055	00000010	0000000000000000
2445000	00000010	21290001	00000000	0000000000000000
2455000	00000014	200a0064	00000014	0000000000000000
2465000	00000014	200a0064	00000018	0000000000000000
2475000	00000014	200a0064	00000000	0000000000000000
  [REG WRITE] $r0 <= 00000000 (PC=00000014, state=1011, instr=00000000, rt= 0, rd= 0)
2485000	00000014	200a0064	00000014	0000000000000000
2495000	00000018	012a582a	00000018	0000000000000000
2505000	00000018	012a582a	000001a8	0000000000000000
2515000	00000018	012a582a	00000000	0000000000000000
  [REG WRITE] $r0 <= 00000000 (PC=00000018, state=1011, instr=00000000, rt= 0, rd= 0)
2525000	00000018	012a582a	00000018	0000000000000000
2535000	0000001c	1560fffc	0000001c	0000000000000000
2545000	0000001c	1560fffc	000160c4	0000000000000000
2555000	0000001c	1560fffc	xxxxxxxx	0000000000000000
  [REG WRITE] $r0 <= xxxxxxxx (PC=0000001c, state=0111, instr=00000000, rt= 0, rd= 0)
2565000	0000001c	1560fffc	0000001c	0000000000000000
2575000	00000020	20080055	00000020	0000000000000000
2585000	00000020	20080055	00000010	0000000000000000
2595000	00000010	21290001	00000000	0000000000000000
2605000	00000014	200a0064	00000014	0000000000000000
2615000	00000014	200a0064	00000018	0000000000000000
2625000	00000014	200a0064	00000000	0000000000000000
  [REG WRITE] $r0 <= 00000000 (PC=00000014, state=1011, instr=00000000, rt= 0, rd= 0)
2635000	00000014	200a0064	00000014	0000000000000000
2645000	00000018	012a582a	00000018	0000000000000000
2655000	00000018	012a582a	000001a8	0000000000000000
2665000	00000018	012a582a	00000000	0000000000000000
  [REG WRITE] $r0 <= 00000000 (PC=00000018, state=1011, instr=00000000, rt= 0, rd= 0)
2675000	00000018	012a582a	00000018	0000000000000000
2685000	0000001c	1560fffc	0000001c	0000000000000000
2695000	0000001c	1560fffc	000160c4	0000000000000000
2705000	0000001c	1560fffc	xxxxxxxx	0000000000000000
  [REG WRITE] $r0 <= xxxxxxxx (PC=0000001c, state=0111, instr=00000000, rt= 0, rd= 0)
2715000	0000001c	1560fffc	0000001c	0000000000000000
2725000	00000020	20080055	00000020	0000000000000000
2735000	00000020	20080055	00000010	0000000000000000
2745000	00000010	21290001	00000000	0000000000000000
2755000	00000014	200a0064	00000014	0000000000000000
2765000	00000014	200a0064	00000018	0000000000000000
2775000	00000014	200a0064	00000000	0000000000000000
  [REG WRITE] $r0 <= 00000000 (PC=00000014, state=1011, instr=00000000, rt= 0, rd= 0)
2785000	00000014	200a0064	00000014	0000000000000000
2795000	00000018	012a582a	00000018	0000000000000000
2805000	00000018	012a582a	000001a8	0000000000000000
2815000	00000018	012a582a	00000000	0000000000000000
  [REG WRITE] $r0 <= 00000000 (PC=00000018, state=1011, instr=00000000, rt= 0, rd= 0)
2825000	00000018	012a582a	00000018	0000000000000000
