sim_iverilog/output3.txt
WARNING: exmemory.v:109: $readmemh: The behaviour for reg[...] mem[N:0]; $readmemh("...", mem); changed in the 1364-2005 standard. To avoid ambiguity, use mem[0:N] or explicit range parameters $readmemh("...", mem, start, stop);. Defaulting to 1364-2005 behavior.
WARNING: exmemory.v:109: $readmemh(programs/simple_program.hex): Not enough words in the file for the requested range [0:16383].
VCD info: dumpfile cpu_sim.vcd opened for output.
========================================
MIPS CPU Simulation Testbench
========================================
Time	PC		Instr		ALUOut		LEDs
----------------------------------------

[INIT] First PC after reset: 00000004
[INIT] First instruction: 200800aa

55000	00000004	200800aa	00000004	0000000000000000
  [STATE] 0001, regwrite=0, memwrite=0, op=0f, irwrite=0, memdata=00000000, instr=3c10ffff
65000	00000004	200800aa	00000000	0000000000000000
  [STATE] 1010, regwrite=0, memwrite=0, op=0f, irwrite=0, memdata=00000000, instr=3c10ffff
75000	00000004	200800aa	ffff0000	0000000000000000
  [REG WRITE] $r16 <= ffff0000 (PC=00000004, state=1011, instr=3c10ffff, rt=16, rd=31)
  [STATE] 1011, regwrite=1, memwrite=0, op=0f, irwrite=0, memdata=00000000, instr=3c10ffff
85000	00000004	200800aa	00000004	0000000000000000
  [STATE] 0000, regwrite=0, memwrite=0, op=0f, irwrite=1, memdata=200800aa, instr=3c10ffff
95000	00000008	ae080000	00000008	0000000000000000
  [STATE] 0001, regwrite=0, memwrite=0, op=08, irwrite=0, memdata=00000000, instr=200800aa
105000	00000008	ae080000	000002b0	0000000000000000
  [STATE] 1010, regwrite=0, memwrite=0, op=08, irwrite=0, memdata=00000000, instr=200800aa
115000	00000008	ae080000	000000aa	0000000000000000
  [REG WRITE] $r8 <= 000000aa (PC=00000008, state=1011, instr=200800aa, rt= 8, rd= 0)
  [STATE] 1011, regwrite=1, memwrite=0, op=08, irwrite=0, memdata=00000000, instr=200800aa
125000	00000008	ae080000	00000008	0000000000000000
  [STATE] 0000, regwrite=0, memwrite=0, op=08, irwrite=1, memdata=ae080000, instr=200800aa
135000	0000000c	20090000	0000000c	0000000000000000
  [STATE] 0001, regwrite=0, memwrite=0, op=2b, irwrite=0, memdata=00000000, instr=ae080000
145000	0000000c	20090000	0000000c	0000000000000000
  [STATE] 0010, regwrite=0, memwrite=0, op=2b, irwrite=0, memdata=00000000, instr=ae080000
155000	0000000c	20090000	ffff0000	0000000000000000
  [MEM WRITE] Addr=ffff0000, Data=000000aa, IsIO=1
  [STATE] 0101, regwrite=0, memwrite=1, op=2b, irwrite=0, memdata=00000000, instr=ae080000
165000	0000000c	20090000	000000b6	0000000010101010
  [STATE] 0000, regwrite=0, memwrite=0, op=2b, irwrite=1, memdata=20090000, instr=ae080000
175000	00000010	21290001	00000010	0000000010101010
  [STATE] 0001, regwrite=0, memwrite=0, op=08, irwrite=0, memdata=00000000, instr=20090000
185000	00000010	21290001	00000010	0000000010101010
  [STATE] 1010, regwrite=0, memwrite=0, op=08, irwrite=0, memdata=00000000, instr=20090000
195000	00000010	21290001	00000000	0000000010101010
  [REG WRITE] $r9 <= 00000000 (PC=00000010, state=1011, instr=20090000, rt= 9, rd= 0)
  [STATE] 1011, regwrite=1, memwrite=0, op=08, irwrite=0, memdata=00000000, instr=20090000
205000	00000010	21290001	00000010	0000000010101010
  [STATE] 0000, regwrite=0, memwrite=0, op=08, irwrite=1, memdata=21290001, instr=20090000
215000	00000014	200a0064	00000014	0000000010101010
  [STATE] 0001, regwrite=0, memwrite=0, op=08, irwrite=0, memdata=00000000, instr=21290001
225000	00000014	200a0064	00000018	0000000010101010
  [STATE] 1010, regwrite=0, memwrite=0, op=08, irwrite=0, memdata=00000000, instr=21290001
235000	00000014	200a0064	00000001	0000000010101010
  [REG WRITE] $r9 <= 00000001 (PC=00000014, state=1011, instr=21290001, rt= 9, rd= 0)
  [STATE] 1011, regwrite=1, memwrite=0, op=08, irwrite=0, memdata=00000000, instr=21290001
245000	00000014	200a0064	00000014	0000000010101010
  [STATE] 0000, regwrite=0, memwrite=0, op=08, irwrite=1, memdata=200a0064, instr=21290001
255000	00000018	012a582a	00000018	0000000010101010
  [STATE] 0001, regwrite=0, memwrite=0, op=08, irwrite=0, memdata=00000000, instr=200a0064
265000	00000018	012a582a	000001a8	0000000010101010
  [STATE] 1010, regwrite=0, memwrite=0, op=08, irwrite=0, memdata=00000000, instr=200a0064
275000	00000018	012a582a	00000064	0000000010101010
  [REG WRITE] $r10 <= 00000064 (PC=00000018, state=1011, instr=200a0064, rt=10, rd= 0)
  [STATE] 1011, regwrite=1, memwrite=0, op=08, irwrite=0, memdata=00000000, instr=200a0064
285000	00000018	012a582a	00000018	0000000010101010
  [STATE] 0000, regwrite=0, memwrite=0, op=08, irwrite=1, memdata=012a582a, instr=200a0064
295000	0000001c	1560fffc	0000001c	0000000010101010
  [STATE] 0001, regwrite=0, memwrite=0, op=00, irwrite=0, memdata=00000000, instr=012a582a
305000	0000001c	1560fffc	000160c4	0000000010101010
  [STATE] 0110, regwrite=0, memwrite=0, op=00, irwrite=0, memdata=00000000, instr=012a582a
315000	0000001c	1560fffc	00000001	0000000010101010
  [REG WRITE] $r11 <= 00000001 (PC=0000001c, state=0111, instr=012a582a, rt=10, rd=11)
  [STATE] 0111, regwrite=1, memwrite=0, op=00, irwrite=0, memdata=00000000, instr=012a582a
325000	0000001c	1560fffc	00000080	0000000010101010
  [STATE] 0000, regwrite=0, memwrite=0, op=00, irwrite=1, memdata=1560fffc, instr=012a582a
335000	00000020	20080055	00000020	0000000010101010
  [STATE] 0001, regwrite=0, memwrite=0, op=05, irwrite=0, memdata=00000000, instr=1560fffc
345000	00000020	20080055	00000010	0000000010101010
  [STATE] 1000, regwrite=0, memwrite=0, op=05, irwrite=0, memdata=00000000, instr=1560fffc
355000	00000010	21290001	00000001	0000000010101010
  [STATE] 0000, regwrite=0, memwrite=0, op=05, irwrite=1, memdata=21290001, instr=1560fffc
365000	00000014	200a0064	00000014	0000000010101010
  [STATE] 0001, regwrite=0, memwrite=0, op=08, irwrite=0, memdata=00000000, instr=21290001
375000	00000014	200a0064	00000018	0000000010101010
  [STATE] 1010, regwrite=0, memwrite=0, op=08, irwrite=0, memdata=00000000, instr=21290001
385000	00000014	200a0064	00000002	0000000010101010
  [REG WRITE] $r9 <= 00000002 (PC=00000014, state=1011, instr=21290001, rt= 9, rd= 0)
  [STATE] 1011, regwrite=1, memwrite=0, op=08, irwrite=0, memdata=00000000, instr=21290001
395000	00000014	200a0064	00000015	0000000010101010
  [STATE] 0000, regwrite=0, memwrite=0, op=08, irwrite=1, memdata=200a0064, instr=21290001
405000	00000018	012a582a	00000018	0000000010101010
  [STATE] 0001, regwrite=0, memwrite=0, op=08, irwrite=0, memdata=00000000, instr=200a0064
415000	00000018	012a582a	000001a8	0000000010101010
  [STATE] 1010, regwrite=0, memwrite=0, op=08, irwrite=0, memdata=00000000, instr=200a0064
425000	00000018	012a582a	00000064	0000000010101010
  [REG WRITE] $r10 <= 00000064 (PC=00000018, state=1011, instr=200a0064, rt=10, rd= 0)
  [STATE] 1011, regwrite=1, memwrite=0, op=08, irwrite=0, memdata=00000000, instr=200a0064
435000	00000018	012a582a	0000007c	0000000010101010
  [STATE] 0000, regwrite=0, memwrite=0, op=08, irwrite=1, memdata=012a582a, instr=200a0064
445000	0000001c	1560fffc	0000001c	0000000010101010
  [STATE] 0001, regwrite=0, memwrite=0, op=00, irwrite=0, memdata=00000000, instr=012a582a
455000	0000001c	1560fffc	000160c4	0000000010101010
  [STATE] 0110, regwrite=0, memwrite=0, op=00, irwrite=0, memdata=00000000, instr=012a582a
465000	0000001c	1560fffc	00000001	0000000010101010
  [REG WRITE] $r11 <= 00000001 (PC=0000001c, state=0111, instr=012a582a, rt=10, rd=11)
  [STATE] 0111, regwrite=1, memwrite=0, op=00, irwrite=0, memdata=00000000, instr=012a582a
475000	0000001c	1560fffc	00000080	0000000010101010
  [STATE] 0000, regwrite=0, memwrite=0, op=00, irwrite=1, memdata=1560fffc, instr=012a582a
485000	00000020	20080055	00000020	0000000010101010
  [STATE] 0001, regwrite=0, memwrite=0, op=05, irwrite=0, memdata=00000000, instr=1560fffc
495000	00000020	20080055	00000010	0000000010101010
  [STATE] 1000, regwrite=0, memwrite=0, op=05, irwrite=0, memdata=00000000, instr=1560fffc
505000	00000010	21290001	00000001	0000000010101010
  [STATE] 0000, regwrite=0, memwrite=0, op=05, irwrite=1, memdata=21290001, instr=1560fffc
515000	00000014	200a0064	00000014	0000000010101010
  [STATE] 0001, regwrite=0, memwrite=0, op=08, irwrite=0, memdata=00000000, instr=21290001
525000	00000014	200a0064	00000018	0000000010101010
  [STATE] 1010, regwrite=0, memwrite=0, op=08, irwrite=0, memdata=00000000, instr=21290001
535000	00000014	200a0064	00000003	0000000010101010
  [REG WRITE] $r9 <= 00000003 (PC=00000014, state=1011, instr=21290001, rt= 9, rd= 0)
  [STATE] 1011, regwrite=1, memwrite=0, op=08, irwrite=0, memdata=00000000, instr=21290001
545000	00000014	200a0064	00000016	0000000010101010
  [STATE] 0000, regwrite=0, memwrite=0, op=08, irwrite=1, memdata=200a0064, instr=21290001
555000	00000018	012a582a	00000018	0000000010101010
  [STATE] 0001, regwrite=0, memwrite=0, op=08, irwrite=0, memdata=00000000, instr=200a0064
565000	00000018	012a582a	000001a8	0000000010101010
  [STATE] 1010, regwrite=0, memwrite=0, op=08, irwrite=0, memdata=00000000, instr=200a0064
575000	00000018	012a582a	00000064	0000000010101010
  [REG WRITE] $r10 <= 00000064 (PC=00000018, state=1011, instr=200a0064, rt=10, rd= 0)
  [STATE] 1011, regwrite=1, memwrite=0, op=08, irwrite=0, memdata=00000000, instr=200a0064
585000	00000018	012a582a	0000007c	0000000010101010
  [STATE] 0000, regwrite=0, memwrite=0, op=08, irwrite=1, memdata=012a582a, instr=200a0064
595000	0000001c	1560fffc	0000001c	0000000010101010
  [STATE] 0001, regwrite=0, memwrite=0, op=00, irwrite=0, memdata=00000000, instr=012a582a
605000	0000001c	1560fffc	000160c4	0000000010101010
  [STATE] 0110, regwrite=0, memwrite=0, op=00, irwrite=0, memdata=00000000, instr=012a582a
615000	0000001c	1560fffc	00000001	0000000010101010
  [REG WRITE] $r11 <= 00000001 (PC=0000001c, state=0111, instr=012a582a, rt=10, rd=11)
  [STATE] 0111, regwrite=1, memwrite=0, op=00, irwrite=0, memdata=00000000, instr=012a582a
625000	0000001c	1560fffc	00000080	0000000010101010
  [STATE] 0000, regwrite=0, memwrite=0, op=00, irwrite=1, memdata=1560fffc, instr=012a582a
635000	00000020	20080055	00000020	0000000010101010
  [STATE] 0001, regwrite=0, memwrite=0, op=05, irwrite=0, memdata=00000000, instr=1560fffc
645000	00000020	20080055	00000010	0000000010101010
  [STATE] 1000, regwrite=0, memwrite=0, op=05, irwrite=0, memdata=00000000, instr=1560fffc
655000	00000010	21290001	00000001	0000000010101010
  [STATE] 0000, regwrite=0, memwrite=0, op=05, irwrite=1, memdata=21290001, instr=1560fffc
665000	00000014	200a0064	00000014	0000000010101010
  [STATE] 0001, regwrite=0, memwrite=0, op=08, irwrite=0, memdata=00000000, instr=21290001
675000	00000014	200a0064	00000018	0000000010101010
  [STATE] 1010, regwrite=0, memwrite=0, op=08, irwrite=0, memdata=00000000, instr=21290001
685000	00000014	200a0064	00000004	0000000010101010
  [REG WRITE] $r9 <= 00000004 (PC=00000014, state=1011, instr=21290001, rt= 9, rd= 0)
  [STATE] 1011, regwrite=1, memwrite=0, op=08, irwrite=0, memdata=00000000, instr=21290001
695000	00000014	200a0064	00000017	0000000010101010
  [STATE] 0000, regwrite=0, memwrite=0, op=08, irwrite=1, memdata=200a0064, instr=21290001
705000	00000018	012a582a	00000018	0000000010101010
  [STATE] 0001, regwrite=0, memwrite=0, op=08, irwrite=0, memdata=00000000, instr=200a0064
715000	00000018	012a582a	000001a8	0000000010101010
  [STATE] 1010, regwrite=0, memwrite=0, op=08, irwrite=0, memdata=00000000, instr=200a0064
725000	00000018	012a582a	00000064	0000000010101010
  [REG WRITE] $r10 <= 00000064 (PC=00000018, state=1011, instr=200a0064, rt=10, rd= 0)
  [STATE] 1011, regwrite=1, memwrite=0, op=08, irwrite=0, memdata=00000000, instr=200a0064
735000	00000018	012a582a	0000007c	0000000010101010
  [STATE] 0000, regwrite=0, memwrite=0, op=08, irwrite=1, memdata=012a582a, instr=200a0064
745000	0000001c	1560fffc	0000001c	0000000010101010
  [STATE] 0001, regwrite=0, memwrite=0, op=00, irwrite=0, memdata=00000000, instr=012a582a
755000	0000001c	1560fffc	000160c4	0000000010101010
  [STATE] 0110, regwrite=0, memwrite=0, op=00, irwrite=0, memdata=00000000, instr=012a582a
765000	0000001c	1560fffc	00000001	0000000010101010
  [REG WRITE] $r11 <= 00000001 (PC=0000001c, state=0111, instr=012a582a, rt=10, rd=11)
  [STATE] 0111, regwrite=1, memwrite=0, op=00, irwrite=0, memdata=00000000, instr=012a582a
775000	0000001c	1560fffc	00000080	0000000010101010
  [STATE] 0000, regwrite=0, memwrite=0, op=00, irwrite=1, memdata=1560fffc, instr=012a582a
785000	00000020	20080055	00000020	0000000010101010
  [STATE] 0001, regwrite=0, memwrite=0, op=05, irwrite=0, memdata=00000000, instr=1560fffc
795000	00000020	20080055	00000010	0000000010101010
  [STATE] 1000, regwrite=0, memwrite=0, op=05, irwrite=0, memdata=00000000, instr=1560fffc
805000	00000010	21290001	00000001	0000000010101010
  [STATE] 0000, regwrite=0, memwrite=0, op=05, irwrite=1, memdata=21290001, instr=1560fffc
815000	00000014	200a0064	00000014	0000000010101010
  [STATE] 0001, regwrite=0, memwrite=0, op=08, irwrite=0, memdata=00000000, instr=21290001
825000	00000014	200a0064	00000018	0000000010101010
  [STATE] 1010, regwrite=0, memwrite=0, op=08, irwrite=0, memdata=00000000, instr=21290001
835000	00000014	200a0064	00000005	0000000010101010
  [REG WRITE] $r9 <= 00000005 (PC=00000014, state=1011, instr=21290001, rt= 9, rd= 0)
  [STATE] 1011, regwrite=1, memwrite=0, op=08, irwrite=0, memdata=00000000, instr=21290001
845000	00000014	200a0064	00000018	0000000010101010
  [STATE] 0000, regwrite=0, memwrite=0, op=08, irwrite=1, memdata=200a0064, instr=21290001
855000	00000018	012a582a	00000018	0000000010101010
  [STATE] 0001, regwrite=0, memwrite=0, op=08, irwrite=0, memdata=00000000, instr=200a0064
865000	00000018	012a582a	000001a8	0000000010101010
  [STATE] 1010, regwrite=0, memwrite=0, op=08, irwrite=0, memdata=00000000, instr=200a0064
875000	00000018	012a582a	00000064	0000000010101010
  [REG WRITE] $r10 <= 00000064 (PC=00000018, state=1011, instr=200a0064, rt=10, rd= 0)
  [STATE] 1011, regwrite=1, memwrite=0, op=08, irwrite=0, memdata=00000000, instr=200a0064
885000	00000018	012a582a	0000007c	0000000010101010
  [STATE] 0000, regwrite=0, memwrite=0, op=08, irwrite=1, memdata=012a582a, instr=200a0064
895000	0000001c	1560fffc	0000001c	0000000010101010
  [STATE] 0001, regwrite=0, memwrite=0, op=00, irwrite=0, memdata=00000000, instr=012a582a
905000	0000001c	1560fffc	000160c4	0000000010101010
  [STATE] 0110, regwrite=0, memwrite=0, op=00, irwrite=0, memdata=00000000, instr=012a582a
915000	0000001c	1560fffc	00000001	0000000010101010
  [REG WRITE] $r11 <= 00000001 (PC=0000001c, state=0111, instr=012a582a, rt=10, rd=11)
  [STATE] 0111, regwrite=1, memwrite=0, op=00, irwrite=0, memdata=00000000, instr=012a582a
925000	0000001c	1560fffc	00000080	0000000010101010
  [STATE] 0000, regwrite=0, memwrite=0, op=00, irwrite=1, memdata=1560fffc, instr=012a582a
935000	00000020	20080055	00000020	0000000010101010
  [STATE] 0001, regwrite=0, memwrite=0, op=05, irwrite=0, memdata=00000000, instr=1560fffc
945000	00000020	20080055	00000010	0000000010101010
  [STATE] 1000, regwrite=0, memwrite=0, op=05, irwrite=0, memdata=00000000, instr=1560fffc
955000	00000010	21290001	00000001	0000000010101010
  [STATE] 0000, regwrite=0, memwrite=0, op=05, irwrite=1, memdata=21290001, instr=1560fffc
965000	00000014	200a0064	00000014	0000000010101010
  [STATE] 0001, regwrite=0, memwrite=0, op=08, irwrite=0, memdata=00000000, instr=21290001
975000	00000014	200a0064	00000018	0000000010101010
  [STATE] 1010, regwrite=0, memwrite=0, op=08, irwrite=0, memdata=00000000, instr=21290001
985000	00000014	200a0064	00000006	0000000010101010
  [REG WRITE] $r9 <= 00000006 (PC=00000014, state=1011, instr=21290001, rt= 9, rd= 0)
  [STATE] 1011, regwrite=1, memwrite=0, op=08, irwrite=0, memdata=00000000, instr=21290001
995000	00000014	200a0064	00000019	0000000010101010
  [STATE] 0000, regwrite=0, memwrite=0, op=08, irwrite=1, memdata=200a0064, instr=21290001
1005000	00000018	012a582a	00000018	0000000010101010
1015000	00000018	012a582a	000001a8	0000000010101010
1025000	00000018	012a582a	00000064	0000000010101010
  [REG WRITE] $r10 <= 00000064 (PC=00000018, state=1011, instr=200a0064, rt=10, rd= 0)
1035000	00000018	012a582a	0000007c	0000000010101010
1045000	0000001c	1560fffc	0000001c	0000000010101010

[1055000] Switches changed to: 0001
1055000	0000001c	1560fffc	000160c4	0000000010101010
1065000	0000001c	1560fffc	00000001	0000000010101010
  [REG WRITE] $r11 <= 00000001 (PC=0000001c, state=0111, instr=012a582a, rt=10, rd=11)
1075000	0000001c	1560fffc	00000080	0000000010101010
1085000	00000020	20080055	00000020	0000000010101010
1095000	00000020	20080055	00000010	0000000010101010
1105000	00000010	21290001	00000001	0000000010101010
1115000	00000014	200a0064	00000014	0000000010101010
1125000	00000014	200a0064	00000018	0000000010101010
1135000	00000014	200a0064	00000007	0000000010101010
  [REG WRITE] $r9 <= 00000007 (PC=00000014, state=1011, instr=21290001, rt= 9, rd= 0)
1145000	00000014	200a0064	0000001a	0000000010101010
1155000	00000018	012a582a	00000018	0000000010101010
1165000	00000018	012a582a	000001a8	0000000010101010
1175000	00000018	012a582a	00000064	0000000010101010
  [REG WRITE] $r10 <= 00000064 (PC=00000018, state=1011, instr=200a0064, rt=10, rd= 0)
1185000	00000018	012a582a	0000007c	0000000010101010
1195000	0000001c	1560fffc	0000001c	0000000010101010
1205000	0000001c	1560fffc	000160c4	0000000010101010
1215000	0000001c	1560fffc	00000001	0000000010101010
  [REG WRITE] $r11 <= 00000001 (PC=0000001c, state=0111, instr=012a582a, rt=10, rd=11)
1225000	0000001c	1560fffc	00000080	0000000010101010
1235000	00000020	20080055	00000020	0000000010101010
1245000	00000020	20080055	00000010	0000000010101010
1255000	00000010	21290001	00000001	0000000010101010
1265000	00000014	200a0064	00000014	0000000010101010
1275000	00000014	200a0064	00000018	0000000010101010
1285000	00000014	200a0064	00000008	0000000010101010
  [REG WRITE] $r9 <= 00000008 (PC=00000014, state=1011, instr=21290001, rt= 9, rd= 0)
1295000	00000014	200a0064	0000001b	0000000010101010
1305000	00000018	012a582a	00000018	0000000010101010
1315000	00000018	012a582a	000001a8	0000000010101010
1325000	00000018	012a582a	00000064	0000000010101010
  [REG WRITE] $r10 <= 00000064 (PC=00000018, state=1011, instr=200a0064, rt=10, rd= 0)
1335000	00000018	012a582a	0000007c	0000000010101010
1345000	0000001c	1560fffc	0000001c	0000000010101010
1355000	0000001c	1560fffc	000160c4	0000000010101010
1365000	0000001c	1560fffc	00000001	0000000010101010
  [REG WRITE] $r11 <= 00000001 (PC=0000001c, state=0111, instr=012a582a, rt=10, rd=11)
1375000	0000001c	1560fffc	00000080	0000000010101010
1385000	00000020	20080055	00000020	0000000010101010
1395000	00000020	20080055	00000010	0000000010101010
1405000	00000010	21290001	00000001	0000000010101010
1415000	00000014	200a0064	00000014	0000000010101010
1425000	00000014	200a0064	00000018	0000000010101010
1435000	00000014	200a0064	00000009	0000000010101010
  [REG WRITE] $r9 <= 00000009 (PC=00000014, state=1011, instr=21290001, rt= 9, rd= 0)
1445000	00000014	200a0064	0000001c	0000000010101010
1455000	00000018	012a582a	00000018	0000000010101010
1465000	00000018	012a582a	000001a8	0000000010101010
1475000	00000018	012a582a	00000064	0000000010101010
  [REG WRITE] $r10 <= 00000064 (PC=00000018, state=1011, instr=200a0064, rt=10, rd= 0)
1485000	00000018	012a582a	0000007c	0000000010101010
1495000	0000001c	1560fffc	0000001c	0000000010101010
1505000	0000001c	1560fffc	000160c4	0000000010101010
1515000	0000001c	1560fffc	00000001	0000000010101010
  [REG WRITE] $r11 <= 00000001 (PC=0000001c, state=0111, instr=012a582a, rt=10, rd=11)
1525000	0000001c	1560fffc	00000080	0000000010101010
1535000	00000020	20080055	00000020	0000000010101010
1545000	00000020	20080055	00000010	0000000010101010
1555000	00000010	21290001	00000001	0000000010101010
1565000	00000014	200a0064	00000014	0000000010101010
1575000	00000014	200a0064	00000018	0000000010101010
1585000	00000014	200a0064	0000000a	0000000010101010
  [REG WRITE] $r9 <= 0000000a (PC=00000014, state=1011, instr=21290001, rt= 9, rd= 0)
1595000	00000014	200a0064	0000001d	0000000010101010
1605000	00000018	012a582a	00000018	0000000010101010
1615000	00000018	012a582a	000001a8	0000000010101010
1625000	00000018	012a582a	00000064	0000000010101010
  [REG WRITE] $r10 <= 00000064 (PC=00000018, state=1011, instr=200a0064, rt=10, rd= 0)
1635000	00000018	012a582a	0000007c	0000000010101010
1645000	0000001c	1560fffc	0000001c	0000000010101010
1655000	0000001c	1560fffc	000160c4	0000000010101010
1665000	0000001c	1560fffc	00000001	0000000010101010
  [REG WRITE] $r11 <= 00000001 (PC=0000001c, state=0111, instr=012a582a, rt=10, rd=11)
1675000	0000001c	1560fffc	00000080	0000000010101010
1685000	00000020	20080055	00000020	0000000010101010
1695000	00000020	20080055	00000010	0000000010101010
1705000	00000010	21290001	00000001	0000000010101010
1715000	00000014	200a0064	00000014	0000000010101010
1725000	00000014	200a0064	00000018	0000000010101010
1735000	00000014	200a0064	0000000b	0000000010101010
  [REG WRITE] $r9 <= 0000000b (PC=00000014, state=1011, instr=21290001, rt= 9, rd= 0)
1745000	00000014	200a0064	0000001e	0000000010101010
1755000	00000018	012a582a	00000018	0000000010101010
1765000	00000018	012a582a	000001a8	0000000010101010
1775000	00000018	012a582a	00000064	0000000010101010
  [REG WRITE] $r10 <= 00000064 (PC=00000018, state=1011, instr=200a0064, rt=10, rd= 0)
1785000	00000018	012a582a	0000007c	0000000010101010
1795000	0000001c	1560fffc	0000001c	0000000010101010
1805000	0000001c	1560fffc	000160c4	0000000010101010
1815000	0000001c	1560fffc	00000001	0000000010101010
  [REG WRITE] $r11 <= 00000001 (PC=0000001c, state=0111, instr=012a582a, rt=10, rd=11)
1825000	0000001c	1560fffc	00000080	0000000010101010
1835000	00000020	20080055	00000020	0000000010101010
1845000	00000020	20080055	00000010	0000000010101010
1855000	00000010	21290001	00000001	0000000010101010
1865000	00000014	200a0064	00000014	0000000010101010
1875000	00000014	200a0064	00000018	0000000010101010
1885000	00000014	200a0064	0000000c	0000000010101010
  [REG WRITE] $r9 <= 0000000c (PC=00000014, state=1011, instr=21290001, rt= 9, rd= 0)
1895000	00000014	200a0064	0000001f	0000000010101010
1905000	00000018	012a582a	00000018	0000000010101010
1915000	00000018	012a582a	000001a8	0000000010101010
1925000	00000018	012a582a	00000064	0000000010101010
  [REG WRITE] $r10 <= 00000064 (PC=00000018, state=1011, instr=200a0064, rt=10, rd= 0)
1935000	00000018	012a582a	0000007c	0000000010101010
1945000	0000001c	1560fffc	0000001c	0000000010101010
1955000	0000001c	1560fffc	000160c4	0000000010101010
1965000	0000001c	1560fffc	00000001	0000000010101010
  [REG WRITE] $r11 <= 00000001 (PC=0000001c, state=0111, instr=012a582a, rt=10, rd=11)
1975000	0000001c	1560fffc	00000080	0000000010101010
1985000	00000020	20080055	00000020	0000000010101010
1995000	00000020	20080055	00000010	0000000010101010
2005000	00000010	21290001	00000001	0000000010101010
2015000	00000014	200a0064	00000014	0000000010101010
2025000	00000014	200a0064	00000018	0000000010101010
2035000	00000014	200a0064	0000000d	0000000010101010
  [REG WRITE] $r9 <= 0000000d (PC=00000014, state=1011, instr=21290001, rt= 9, rd= 0)
2045000	00000014	200a0064	00000020	0000000010101010
[2055000] Button pressed: 00001
2055000	00000018	012a582a	00000018	0000000010101010
2065000	00000018	012a582a	000001a8	0000000010101010
2075000	00000018	012a582a	00000064	0000000010101010
  [REG WRITE] $r10 <= 00000064 (PC=00000018, state=1011, instr=200a0064, rt=10, rd= 0)
2085000	00000018	012a582a	0000007c	0000000010101010
2095000	0000001c	1560fffc	0000001c	0000000010101010
2105000	0000001c	1560fffc	000160c4	0000000010101010
2115000	0000001c	1560fffc	00000001	0000000010101010
  [REG WRITE] $r11 <= 00000001 (PC=0000001c, state=0111, instr=012a582a, rt=10, rd=11)
2125000	0000001c	1560fffc	00000080	0000000010101010
2135000	00000020	20080055	00000020	0000000010101010
2145000	00000020	20080055	00000010	0000000010101010
2155000	00000010	21290001	00000001	0000000010101010
2165000	00000014	200a0064	00000014	0000000010101010
2175000	00000014	200a0064	00000018	0000000010101010
2185000	00000014	200a0064	0000000e	0000000010101010
  [REG WRITE] $r9 <= 0000000e (PC=00000014, state=1011, instr=21290001, rt= 9, rd= 0)
2195000	00000014	200a0064	00000021	0000000010101010
2205000	00000018	012a582a	00000018	0000000010101010
2215000	00000018	012a582a	000001a8	0000000010101010
2225000	00000018	012a582a	00000064	0000000010101010
  [REG WRITE] $r10 <= 00000064 (PC=00000018, state=1011, instr=200a0064, rt=10, rd= 0)
2235000	00000018	012a582a	0000007c	0000000010101010
2245000	0000001c	1560fffc	0000001c	0000000010101010
2255000	0000001c	1560fffc	000160c4	0000000010101010
2265000	0000001c	1560fffc	00000001	0000000010101010
  [REG WRITE] $r11 <= 00000001 (PC=0000001c, state=0111, instr=012a582a, rt=10, rd=11)
2275000	0000001c	1560fffc	00000080	0000000010101010
2285000	00000020	20080055	00000020	0000000010101010
2295000	00000020	20080055	00000010	0000000010101010
2305000	00000010	21290001	00000001	0000000010101010
2315000	00000014	200a0064	00000014	0000000010101010
2325000	00000014	200a0064	00000018	0000000010101010
2335000	00000014	200a0064	0000000f	0000000010101010
  [REG WRITE] $r9 <= 0000000f (PC=00000014, state=1011, instr=21290001, rt= 9, rd= 0)
2345000	00000014	200a0064	00000022	0000000010101010
2355000	00000018	012a582a	00000018	0000000010101010
2365000	00000018	012a582a	000001a8	0000000010101010
2375000	00000018	012a582a	00000064	0000000010101010
  [REG WRITE] $r10 <= 00000064 (PC=00000018, state=1011, instr=200a0064, rt=10, rd= 0)
2385000	00000018	012a582a	0000007c	0000000010101010
2395000	0000001c	1560fffc	0000001c	0000000010101010
2405000	0000001c	1560fffc	000160c4	0000000010101010
2415000	0000001c	1560fffc	00000001	0000000010101010
  [REG WRITE] $r11 <= 00000001 (PC=0000001c, state=0111, instr=012a582a, rt=10, rd=11)
2425000	0000001c	1560fffc	00000080	0000000010101010
2435000	00000020	20080055	00000020	0000000010101010
2445000	00000020	20080055	00000010	0000000010101010
2455000	00000010	21290001	00000001	0000000010101010
2465000	00000014	200a0064	00000014	0000000010101010
2475000	00000014	200a0064	00000018	0000000010101010
2485000	00000014	200a0064	00000010	0000000010101010
  [REG WRITE] $r9 <= 00000010 (PC=00000014, state=1011, instr=21290001, rt= 9, rd= 0)
2495000	00000014	200a0064	00000023	0000000010101010
2505000	00000018	012a582a	00000018	0000000010101010
2515000	00000018	012a582a	000001a8	0000000010101010
2525000	00000018	012a582a	00000064	0000000010101010
  [REG WRITE] $r10 <= 00000064 (PC=00000018, state=1011, instr=200a0064, rt=10, rd= 0)
2535000	00000018	012a582a	0000007c	0000000010101010
2545000	0000001c	1560fffc	0000001c	0000000010101010
2555000	0000001c	1560fffc	000160c4	0000000010101010
2565000	0000001c	1560fffc	00000001	0000000010101010
  [REG WRITE] $r11 <= 00000001 (PC=0000001c, state=0111, instr=012a582a, rt=10, rd=11)
2575000	0000001c	1560fffc	00000080	0000000010101010
2585000	00000020	20080055	00000020	0000000010101010
2595000	00000020	20080055	00000010	0000000010101010
2605000	00000010	21290001	00000001	0000000010101010
2615000	00000014	200a0064	00000014	0000000010101010
2625000	00000014	200a0064	00000018	0000000010101010
2635000	00000014	200a0064	00000011	0000000010101010
  [REG WRITE] $r9 <= 00000011 (PC=00000014, state=1011, instr=21290001, rt= 9, rd= 0)
2645000	00000014	200a0064	00000024	0000000010101010
2655000	00000018	012a582a	00000018	0000000010101010
2665000	00000018	012a582a	000001a8	0000000010101010
2675000	00000018	012a582a	00000064	0000000010101010
  [REG WRITE] $r10 <= 00000064 (PC=00000018, state=1011, instr=200a0064, rt=10, rd= 0)
2685000	00000018	012a582a	0000007c	0000000010101010
2695000	0000001c	1560fffc	0000001c	0000000010101010
2705000	0000001c	1560fffc	000160c4	0000000010101010
2715000	0000001c	1560fffc	00000001	0000000010101010
  [REG WRITE] $r11 <= 00000001 (PC=0000001c, state=0111, instr=012a582a, rt=10, rd=11)
2725000	0000001c	1560fffc	00000080	0000000010101010
2735000	00000020	20080055	00000020	0000000010101010
2745000	00000020	20080055	00000010	0000000010101010
2755000	00000010	21290001	00000001	0000000010101010
2765000	00000014	200a0064	00000014	0000000010101010
2775000	00000014	200a0064	00000018	0000000010101010
2785000	00000014	200a0064	00000012	0000000010101010
  [REG WRITE] $r9 <= 00000012 (PC=00000014, state=1011, instr=21290001, rt= 9, rd= 0)
2795000	00000014	200a0064	00000025	0000000010101010
2805000	00000018	012a582a	00000018	0000000010101010
2815000	00000018	012a582a	000001a8	0000000010101010
2825000	00000018	012a582a	00000064	0000000010101010
  [REG WRITE] $r10 <= 00000064 (PC=00000018, state=1011, instr=200a0064, rt=10, rd= 0)
2835000	00000018	012a582a	0000007c	0000000010101010
